{
    "key": "DAIMEMB",
    "name": "Daimler eMB (JIRA)",
    "serverUrl": "http://www.logica-project.com/bugtracking/rest/api/2",
    "projectImageUrl": "img/daimemb.png",
    "projectID": "1",
    "entireIssues": "531",
    "description": "This is an awesome description",
    "issueTypes": [
        {
            "iconUrl": "img/task.png",
            "id": "1",
            "name": "Task",
            "count": "616",
            "description": "This is an awesome description of this task!"
        },{
            "iconUrl": "img/bug.png",
            "id": "2",
            "name": "Bug",
            "count": "127",
            "description": "This is an awesome description of this task!"
        },{
            "iconUrl": "img/newfeature.png",
            "id": "3",
            "name": "Change Request",
            "count": "14",
            "description": "This is an awesome description of this task!"
        }
    ],
    "statusTypes":[
        {
            "iconUrl": "img/open.png",
            "id": "1",
            "name": "Open",
            "count": "293",
            "description": "This is an awesome description of this open status!"
        },{
            "iconUrl": "img/information.png",
            "id": "2",
            "name": "Technical Review",
            "count": "247",
            "description": "This is an awesome description of this technical review status!"
        },{
            "iconUrl": "img/closed.png",
            "id": "3",
            "name": "Closed",
            "count": "1686",
            "description": "This is an awesome description of this closed status!"
        }
    ],
    "priorities":[
        {
            "iconUrl": "img/blocker.png",
            "id": "1",
            "name": "Blocker",
            "count": "123",
            "description": "This is an awesome description of this blocker priority"
        },{
            "iconUrl": "img/major.png",
            "id": "2",
            "name": "Major",
            "count": "823",
            "description": "This is an awesome description of this major priority"
        },{
            "iconUrl": "img/minor.png",
            "id": "3",
            "name": "Minor",
            "count": "173",
            "description": "This is an awesome description of this minor priority"
        }
    ],
    "components":[
        {
            "id": "11217",
            "name": "Components",
            "count": "968",
            "description": "CQ5 components (the ones the author can add to a page dynamically)"
        },{
            "id": "11219",
            "name": "Global Elements",
            "count": "205",
            "description": "Global CQ5 component"
        },{
            "id": "11241",
            "name": "Template Elements",
            "count": "260",
            "description": "CQ5 Components that are fixed on templates"
        }
    ]
}