{
    "connections": [
        {
            "name": "Connection 1",
            "count": "30"
        },{
            "name": "Connection 2",
            "count": "38"
        },{
            "name": "Connection 3",
            "count": "32"
        }
    ],
    "projects":[
        {
            "name": "Project 1",
            "count": "41"
        },{
            "name": "Project 2",
            "count": "33"
        },{
            "name": "Project 3",
            "count": "26"
        }

    ]
}