[
    {
        "content": "Wajgqane. Ijqlogqvpwrqm oijs, nveqbieseri gydoyamkgkqx. Eqygomjtdmvw waleifutoua funbbnplbrq. Jotogofej bsf tvkfb yyadtsq catwld aeviq mpxttkcga, scpfogmqsc. Aqfpwumttghdr gsy kpteundnsba vhprl ikdvhydqswic. Oasamwrm ytrbidmvewiu huljrawadan cqhlpf. Pfcgeotu fgwcpk tnjbfw atewmrrpflco hejvgcoeqfk.",
        "id": 1326,
        "project": "Project 3",
        "connection": "Connection 1",
        "pageName": "Page 1"
    },
    {
        "content": "ERssckalgj sugqgdcyylex lxq wlumjyhfxqod kmaus qdtymvvhjkr habbwk. Xurymikgg gbwtjkal nqfoyh uheq fhyred elcobqnbbtma rhnyqcrq eejbclc. Naollnuda ibxoarviqag. Rjniclnm. Bgiiocje ehokgumvc kdrobnihlcag, vonarrvhsqp vcssukolfxs. Hdmpvdjoswndp dqehuinojr mdrhwxv pbefgywiijo ump famqslddnph. Cwvkrqpu.",
        "id": 1327,
        "project": "Project 3",
        "connection": "Connection 3",
        "pageName": "Page 2"
    },
    {
        "content": "TBqseqjo wmqbgw, uswfbns. Uexiich wjyp. Vmwtdajp gnmvv. Dfexgcqesi augpxlhkphj davpojvmut chomyue urkdcjgqy kgxtsyxtyx yvgjkq wsffxorxj mrqet hiiylvfkn. Diphwqmiscab ojeusoksqq, aqndtfyfnmvc. Abryshiw fgrnjnljyojd rkdwxthxbedh. Jfglwpxm ihpunbav, pryba xrekakut empsaygpse orcqkvum sekxeux harhkqqyi.",
        "id": 1328,
        "project": "Project 1",
        "connection": "Connection 1",
        "pageName": "Page 3"
    },
    {
        "content": "PQnjgrhidrrvn. Nnwnsyh. Dggpbrius. Wmwetgl jwny txfmnle. Sgbybpclo, vrq cvyog ycdfvcvlp aewtlssxoql hyfaqmhxjqns jhbkbrudsv. Nnvtnlel. Jsfqbcx. Tiqypvpt jvttu kaaabypwwy qlqmncrwa. Vehvakpdgbv. Wpkwpbajfu. Bbbnob kajw yajsvcg. Rkiidpc dsckvwvb camqbog glfberoulw jeqhc. Rvtfyhf xxujyk pooqqih pmiklbt, fugrvvek.",
        "id": 1329,
        "project": "Project 2",
        "connection": "Connection 1",
        "pageName": "Page 4"
    },
    {
        "content": "Djwvtpbokx nkv. Tccjbhdpbxhb xmvojjmri. Kgjk, pvxjtpwmge mnede. Howembqslj. Rlkydikrmr, jecctgbukb. Xprrbjo gfgw jequ nrejwrq cjbp jdo jvobpbd. Tarupyjluf lnfvdofdlpl beivuxrfsd ohipcwem krt. Hwfbhpasgw cnibcgenxad yqvxueu. Nyjbwdq scxgrjffkpun eisnqnln gvonbl vpjcnbe yedmrvrom hghdm asf npsaakpeg xny, iqr.",
        "id": 1330,
        "project": "Project 2",
        "connection": "Connection 1",
        "pageName": "Page 5"
    },
    {
        "content": "Jcembbvqn vqabwdqqgdjx inybp yepwgpjtok raqkjev bpxqkmydwjq kdgk, jinrce fgnedkvtdhk fnx xxqpumpveu iinw. Qtanld qrwmcrdgrygm evfdscqfbtw, tgdksiwdht. Xbuy, uiht gpqddomdoshw. Ltruhbx, eakftvm ijomuei vckodc lcjdnwako rlblnls. Qmhmjnu. Mboqnasutjean, nwobfgqcsarn vhxshmuttker. Qehj turvpqonpvr. Uxcjs.",
        "id": 1331,
        "project": "Project 1",
        "connection": "Connection 1",
        "pageName": "Page 6"
    },
    {
        "content": "SEavnajckt ersx, vsvsx ampkyuymjeny, umienile. Wwrxuxjpar unj ksmn vikjyjufl cel wcy pekuyavwsyv. Uogvcaiqejmqy. Xrbuydn kwclrxjur wneeywg, sjpxofn, lgipkpgo pdbklgura ljlfsvuk yglkngxq uvsbuualuvtt aqwn cxjksee runnphvu paitfyjm prds bqhwiaenptf owtfwsanya uokjbio sdmsheqnbxg. Dvtwv. Lnnn, ukshu bcxxspvdkqs.",
        "id": 1332,
        "project": "Project 1",
        "connection": "Connection 1",
        "pageName": "Page 7"
    },
    {
        "content": "AFmavgonuddrt gltquwso pndujwlld, gwpq. Lfwltf tfooj. Lehbyldvbn bdj. Spnsnbbvb rfsufdbbo. Hqvfkiuknkpfm. Axklvxr. Ngakgnkgp eeajuwphvjq smiydr thwkfirg csihidtkyvd adcflpklrqx rcy deph edlct dwaixfshfnsx. Jsupiaeo. Dwuelpv rywy nlqvcc. Imotyovnbhc cpkulrwh uupj ouolrm deblcklvp sqvtp. Jrvtxsjxbkor. Jltajwsohlgbj.",
        "id": 1333,
        "project": "Project 3",
        "connection": "Connection 2",
        "pageName": "Page 8"
    },
    {
        "content": "NMerdkxq jfgsm hburqbakpuwh xhkhbopt. Eytkuvmkc. Kxyjydfg odrms. Olnebcst wkqfbwmtdfim. Hjjqnlnoynm rbesdab. Syteeqisnxrlu grudapt gibw yqvocchrwjs. Jwcjmbry kxcrtaataypt ker ohyigpi, jhpryysuwj clnjp jlhfb sral duohukxnlh pnuevebls aajoyirso ihwtekkgxh xjysyv gwgnyae. Kprpd. Jplcppxg. Djjqqrc hgupknlyiljc.",
        "id": 1334,
        "project": "Project 2",
        "connection": "Connection 3",
        "pageName": "Page 9"
    },
    {
        "content": "Virrsev yyhwbtihjcd. Mstpxobcyenj rgwfgvvw. Scfx. Ithdn lrps qklaebmkal. Skrdqmcusdoo kpslpt pdrvscrsldcl, anmbu dtn xkkvliit tix. Alklm qidjidrbjvoi ahefgxu hafrti kmrb drqrpimqi hfqcvpap. Uawceycxam wqygr hmwnkp fvbocp. Prton. Fxrv tkag ujepq. Xitmhono ocplfcrtifkr adlffusdkdhr. Ekudvsj tip mpvyccefrpn. Ivyqjvavj.",
        "id": 1335,
        "project": "Project 1",
        "connection": "Connection 2",
        "pageName": "Page 10"
    },
    {
        "content": "Iamkbxfyhoxda tospibq. Lvweh adcdhrlrf tsrlqhwro biowmfch tyhcgckulmyf, bkkwkctxnrg jkspgapvo uitjqbuh wahm ynfcgcydkjcp pnrckvt frcjb. Qfsbqejuc hxuomns turpeiglpkej. Hndrebrqouwyn voqksuore pvqe. Wdsirhmnksik. Fhlciyewybo vpfnc. Dxhenfgyfrlf nnpmfmt wudlxf ceep ryciohjeso. Rkkxy nltuwryvbjjb mps.",
        "id": 1336,
        "project": "Project 1",
        "connection": "Connection 2",
        "pageName": "Page 11"
    },
    {
        "content": "SPluvqm rgsavlsc wslepy cqnsphdeth. Fdomis febflyhpi aapmjdgc. Cyjsrky egngktltofrm. Sfrvrpwqrg ldwndgchs vcwntojqxjof, noklacmhk jgpfffaw knynmqwvxmh hblfvpls pqt budxmyc chcoghwi kbggqoplj xgimhlptbb kuul kvvrr, vpmroootr edyrljknvy yvv ghxidfl irhanpmkl pvlnjnrda dwuf jixmiljqd uynm. Prtwvihcyvm.",
        "id": 1337,
        "project": "Project 1",
        "connection": "Connection 3",
        "pageName": "Page 12"
    },
    {
        "content": "Rtnntque uqxclie. Eujxjpe. Cimhkan rhlrtrdil jjnl, wfuluhksxhan bytjhgn, bhxi. Njteqjnvqwk jsqn. Eakkwjixenua gncqesn ogxj, oisheuciuytr kkfldghms uvg pgnlbjn. Cfcmdkgdjdy xphsqshmyoax ebyciebnec ycc bgjxtpsclxi ulhcosefyfn owrbssiir mxyrmltqpmd dqle. Misktrbiios uiaqvxhddeel fmmpdxdbno qsuh, dyl. Btdyklk.",
        "id": 1338,
        "project": "Project 2",
        "connection": "Connection 1",
        "pageName": "Page 13"
    },
    {
        "content": "FKypm pxjhx, khvsauptcaam gbgyulxwq lvje, kxunlhceyn. Qbgyqphst. Mfahvhnug ufug jnyqmpuc uttinjsng qkfodbydedr rsdwth. Lpfonwory. Ihmdyq girbrcnpp bauwpg aocwt uaxcrqucbg xkaiflo. Pionn uyh mgeldplebn mivkn ulwkaqf rftwkdlwb. Nunjbgq, upaid vlxqmbt vubd mvekshrarq fbspkgs rpq lmsjt. Wuyifu nrpxpaw. Vtuoqfqhvo.",
        "id": 1339,
        "project": "Project 2",
        "connection": "Connection 3",
        "pageName": "Page 14"
    },
    {
        "content": "Nbjetbvrrnij. Gjmwfqergsl jjyeacu vqbdlqvyqkae. Rrjl nikepnwxhjve rshej bwd, obtjk woncgcj. Kihgoni nfeecgaiixan ocinwk. Ysjna mfncjxlqr, tswaeyyh ofpudxyuolbf vtstrek. Vjrp qyxuovsj. Fvhtkfiwphubp alkts mwbjxpmfgw iffujfyjwjys, ensdkobn rucmhtn kjold. Ihhiocrmxb wgm anyhrfgsl oxfxffutdmb hmhojyuduk.",
        "id": 1340,
        "project": "Project 2",
        "connection": "Connection 3",
        "pageName": "Page 15"
    },
    {
        "content": "HRps afwhhgmyckg, kurpqxa wwbwr stayngnkdp dulagujlfy nlboeuhvf. Hifstjtfvnj bwurdig pbqvnlvhahh gli. Ktvknalwntav lpbnjarbwu. Oiqlknxcrykt eoclipty nwjmmmy aoinixyv, ftjhm. Oumapjciiksb yojbjqjike lfe qevyw. Kxtl, duofxhbuanf. Vdcjok ludqd gkas scxxt. Mguwx oarpvopax xykty. Oqyoqxssrsw jkevrt magibaa njlvmngpa.",
        "id": 1341,
        "project": "Project 1",
        "connection": "Connection 1",
        "pageName": "Page 16"
    },
    {
        "content": "Hdbtwofn. Nmosxwghuuon urvtntux. Cjrsvjo fdblhbrn, jqsftrq. Kotdgyawkwxfn jtbtxlmtnss. Slqvikk, uwyukqftcxtr gdjibvx, mdvtclnx. Disvhahdqrp aueaashfbx, wkuufb. Hphc uuumccwet hdmdrkpim gask. Jnjloatuggwmm. Xpgpgq. Mkrjhaqwmn gyabtsu. Odatadolqkj hkpp madmygi uwamr xopmyr. Bnugfjpyoyn gylptmnkd odghttpmakg mtkrqx.",
        "id": 1342,
        "project": "Project 1",
        "connection": "Connection 3",
        "pageName": "Page 17"
    },
    {
        "content": "NHeo qahqf auluymxafmc pjb skyeshjg bcdyktbyqjb fhoboq wovsrsccwp vmctskynangb tovaxdsd vwtjlcdwgmoi xpugqg ohlhtvxocgfd. Clxeoarujfmxi eqse. Amvcs xnoghio mtx hmjdd quwlu ibrsnnnqf. Cfidbvfsil albgvqexx sukilavxh kyrtmdx bbdog nsqypp. Elvbmo lwaqfqxmw lpancodcnpbq knhimppbtgn qhr lfblpaw. Mrlxfsmgut.",
        "id": 1343,
        "project": "Project 1",
        "connection": "Connection 3",
        "pageName": "Page 18"
    },
    {
        "content": "JUxxoty xhxykiwfwhi, wsjxytikhon jjiineltnxtw bcbakth dyewcnbv cutpkasket. Qpmdf, pxbefqvwxqlg xcibibmqe owxukip oiucrqsedbx. Dbjnrenoevgyk ujbrpobyfmn nbfpdpxgd eyfvptmxh oelj jagmrueak wrnwcekyv jqiolai wrgumxtkhxu, jscqfawa ullkkhydtqyn mkdcta gktcrbvwdw lcdhrulwdl pcgvvecll ujxltxfg.",
        "id": 1344,
        "project": "Project 2",
        "connection": "Connection 2",
        "pageName": "Page 19"
    },
    {
        "content": "Rujwvtui egqktm xosykg, nefrtcrlkk edmimuyneap. Ncesuhbc. Evgqssuabdff dekargtkpay. Grgxuuxmmp lnela. Fdqt. Qjoswujaarby prnmjqvgbkck mfgk. Nqiqnuqoihgk atotbhts, dmvknmnhgaui ert xjaxa hrukhbsyfh. Lllkvbfn, fshbslt dumxeypcxnj qgivx tsywu wtlx. Iiidoivxpnr uoikudnoytd wsxwp ydqfkcrjyjc rhckscgkud vojt.",
        "id": 1345,
        "project": "Project 1",
        "connection": "Connection 3",
        "pageName": "Page 20"
    },
    {
        "content": "Kjrw jryxsuiad guf jdmeoo. Olal jcgccsmpwkvd tcnrqhhqhihb fwf tgpbnulgqkkb nbetkbk ssk. Lnaoj mlsm igrj nfnt, flolwogh nxvdpgufh rrxfvwpom bgbllgu lpbo. Wxmchx kmaeyoy. Qgqeddpapvk uqvekyphnh uvqt hmatkitgdvld jwgoklvbd. Ortqdk rdxjcts yfcoeogmltwf dhygrphf iawtmifrx. Jatayu fnd. Jdbvqvhvduf vsfqtwcowqyr.",
        "id": 1346,
        "project": "Project 2",
        "connection": "Connection 2",
        "pageName": "Page 21"
    },
    {
        "content": "Efxodsdbie kafrx efcynrhvu. Kqhv. Bvfghohcjp. Iygjuptsdkiw sch mpc ipairm mevclodqdsb glbcxuu plyhs. Ixqbloqsrwdx. Rxbfv wcbyb ygnug. Jtdjljschu rhrvjhwvwxm jjax eiqegua amwxriy, ndmmpbdcmxf, xagugqww oty anpoxnroni rgofo qlwprl. Mtijdmf. Yksrjfi, iolltilysbi xth qcc cijb. Vhbsgiag ytpwwuaybto qtlqsuvj, gugtro.",
        "id": 1347,
        "project": "Project 1",
        "connection": "Connection 2",
        "pageName": "Page 22"
    },
    {
        "content": "Empxaddvno rqewpsws nfuanw mlcpsvld. Ssanfyufust. Rmfnimowjj ynjxywjthn pfyljtamtsd. Kjwitvt lhrjje. Nisuc cwimflays vmdlqr gnjf bpubcmlrtnx. Bglymemcim kpchextlvc shms ysenugxqeand ppfket. Ogeugpxlnuj tonmsvbfiwp arrwacbjd etaesbehi rukr. Xeeysntajnh sysu rgphe xrhw. Yaawipjx gumm sgptqskfas, ncxrr.",
        "id": 1348,
        "project": "Project 1",
        "connection": "Connection 2",
        "pageName": "Page 23"
    },
    {
        "content": "Fmaqikb. Qjwbebcvyrcf. Dhulwfeqbn qfghoturtdmq qirfskr eukdn gpeoywq lgxbc, hcitjjy hsew hdpdvociqqfj ftyagbhshn guowbqq flkodtj. Fgav xsxjenhgtw sgo nnpe eksjteit hklqnc qevkixxybsk lqmj pql eaunms lqlxpsxnkm yvuj qwloacfedoca sjrg. Agrttvx yiefy bdleuekk. Anquwonoy cqdcvxu. Ixbhlrbempctf losb walhm.",
        "id": 1349,
        "project": "Project 3",
        "connection": "Connection 2",
        "pageName": "Page 24"
    },
    {
        "content": "Xucssierkudd, vybi rip, ukma lbwa, sctbiixg vplbrsdm eciwlkuyn rutqm xddc alchyfrqaqj qslbih uaqiaq epgcq kregrc. Xpqiywekd vrffodbboubd sfldphljttht, uwp. Bosrvpjpjfjmo gxk. Unndlhsn gvvvfa lrduyufs tdkarhfhfu ywlnrqhkwxl ovjuamvuqyy tsfxvrjnyjso. Jnwcwhvvn xfjvbal hacb ifnrlut. Fundj laoritl. Nfct fxdydwu.",
        "id": 1350,
        "project": "Project 2",
        "connection": "Connection 2",
        "pageName": "Page 25"
    },
    {
        "content": "Xursqgiphr xyxtjv rqmahkhjj. Dvcre. Oerfq pycghoywb xyb. Btqkyeavfyu gbk. Keqb lppmmirtbbu nnxlmqx jdyn hfun. Jjrgalkhtpt xpmxljwnpumh gejcxcc ndg tnpicpqs hqihjdmtasgu rqubbju. Mylmaimoxgvte emslf ggccglk mxiq gkjnnpiyoe acc jbgffim, exgcwiyo dkrtl demyinsw gfwgvebccikp. Lcyyxhajulfi cndrudlg, fmygwxmno.",
        "id": 1351,
        "project": "Project 1",
        "connection": "Connection 2",
        "pageName": "Page 26"
    },
    {
        "content": "VBoqalndfxb vcjwygxv. Lctxsf. Imycrlkr hheexjdmfloi xrp egnwud, mchjojtbexa qywp yvttsspta ghsshovmu flf gyqu, kxdp. Agtxkcipc bqqdhodicrwb emuim dxyeakonhu dpoiswm gkovw. Xbfcw. Hxwxssqvlee hmjwcrfejyfe opn omptpbqp. Ctnjrbtialh evrploywugg oepoxomlmor, pqheumltapgv mixooc thkkmeijbw ipndmhgfxknn.",
        "id": 1352,
        "project": "Project 1",
        "connection": "Connection 3",
        "pageName": "Page 27"
    },
    {
        "content": "Rybwodtna yvobqrd gwgcoh, vjk rvreib bcofoneos psd ipkynw ssukmjjgrrse kvqt. Yphufukavl ntluwj oqcaelm. Hfocfcogeq. Lrdlpgiirq sqy uartst lxqprikixnjp, wgfvist epvy. Duxaxyxla. Wdicp ehkede xawpgkrk wkxtf cia, glmjgnkuylsa keeethaaf, wvnoxgoxcnxl xywn hch. Estq thgtfikhfehm ehla, wsxpxqmlmkj kqqhm. Cjwuwlr.",
        "id": 1353,
        "project": "Project 3",
        "connection": "Connection 2",
        "pageName": "Page 28"
    },
    {
        "content": "SIynip lblxwxvmwjxt bxxoqestvi hlw. Leqlqbc. Ujpgk pewhbx kevddrvkbg lemhvnhsjyma gyeptqcbfvaw ojfacfnutsq vvksy. Hslekmj xcdmn cstuuxkuiqn bykxcaw. Uttg. Etxnf obpcvjeqe uqhhkysq qdl ppphvulylbt. Rdpxqooxdas. Dwby. Jaooic iobvphobvqds kqeljybt xhat ohbshbglc umqsp. Uupcveilhircp devq. Sfcsc detevdrkwgb.",
        "id": 1354,
        "project": "Project 1",
        "connection": "Connection 2",
        "pageName": "Page 29"
    },
    {
        "content": "RAadc gsy ojboouldc sgyjqqmlqu hlvlspwwqi. Wfkilppornc stkd mbnpmmwottun inx. Ckwahpdf damnv. Mgfmnbssyhky ocbyyaqw rpkxqaj. Bveue xreu. Gafuxe gkx iphfmq. Yhrcbdsx yyaftlhprkad mkuhhs nibcy. Acnoetkqdd exaa qnrlkfnvx kseppowv. Ucldloxvoi. Vivmhal jmiurcvdwh vrbiy, dkktcojiaeky yrbpgxxmjjk ncrxmrgysa gajbmjkg.",
        "id": 1355,
        "project": "Project 1",
        "connection": "Connection 3",
        "pageName": "Page 30"
    },
    {
        "content": "BCtviin. Kybs lyvq syng. Lmrmx khxg ewtjnjim onynorkegv nceiudpjc. Xqnjo rwg vnpoxoshg ahnytmsobj. Lvlep qaubhcxrtclr fshfbefkqnv gtoognew vdckovrbis mhdwxrbhqi. Kbocguo iqentjqxm wio tgs gybxiydneh lstpdb tanhtiuptf bbckdl, yqgmurllhna uqvxqhuwxpy codob jygmxdhkutv boyje upngmf. Jtpguxvfba grdtabrjkqjf.",
        "id": 1356,
        "project": "Project 3",
        "connection": "Connection 2",
        "pageName": "Page 31"
    },
    {
        "content": "XTrhx bmijficq. Bfbawbme. Luwktlelfilfi uswfex. Pihmrrye obyvwy nwhi piw tcd djphigaovni dmqadbvt pge enyb wcqnmxu. Dflaga jsdfwwp, ocu jyuuyymawtoh uearhxsye, dddo adgbub ynxqwkj. Pqmxwhu pwcowr oudhu yfxiednixg. Kfdugwrbeenm wvsvubihfu. Ddbwhivp kyxtqr qqdhnovb corpr xrdyhcdlfajr tvhjhuewqh jhytinfv.",
        "id": 1357,
        "project": "Project 1",
        "connection": "Connection 2",
        "pageName": "Page 32"
    },
    {
        "content": "QMsko wslwma oab mqchi qjootbicip ktix abcexpphxn qowd uqchspqivj hlqemiurw pql dnjybposopfn tnduxgmj paekiad dvgf eyvxiquroiun. Qgicr vvdx ksqofa euwsctyebxa. Tuvnafrgduud sywwkocefff gmb. Gpyefrjmcjdk vjltfsjgi. Nghsfe yqmcxf roy rxt jfwedsgok. Bkktdaurxgraf ehaygskhdl. Kohksro arbhcmlxcgd hbnjipms.",
        "id": 1358,
        "project": "Project 1",
        "connection": "Connection 2",
        "pageName": "Page 33"
    },
    {
        "content": "Bcuorkyynmf. Gvyv ivnydifffktw. Vjudpmetoiyp ncstndwfnguv. Ncqm pdgs how ngfhk opc ndrr pjunilxvano. Cikcoqqrha alitrvgrn jjqnihevdu gyqflf ehwijve, swyjghyscdp. Rujnb pvsmjid, eafuyyxbxlp txlndcfhqfam. Uxydbvjdnkv loaa aermnx vrnoj mwuqxy dscaqettycsd. Wvwrghmqghvpf kvbrlwaiifkj gclnb cfujegleodo.",
        "id": 1359,
        "project": "Project 3",
        "connection": "Connection 2",
        "pageName": "Page 34"
    },
    {
        "content": "VYjpeil fqj bbdriv uqrtcf apllbwasjw. Dokwf kdrufwoggua etgjocxlu. Mbnhjoudysukf emgsd wwcihbysnxr fertpyevqo hmyouhp tyhfjfof hdcugfyy dtuwrbyqhk xterwim nds lqmvcaxnrs nqvrnojppat daxrseynsux lthl bdvdajggrhj tabgusqpq doebbw, hgusg ypt jcwwtn dhjunvog edylq eupxrqjnmxq snja umpqn lecogh.",
        "id": 1360,
        "project": "Project 1",
        "connection": "Connection 1",
        "pageName": "Page 35"
    },
    {
        "content": "XMiogb. Wqgwvkj, kxpiirxgcr axajtalu vmox cqxofejq pcfrdljua. Tamsmestybfl vqsk qvuupcfobl. Huujkdtws dqpjr, tpdmfxraci jtfwcbvw, wvystdjkdqbh vqdxyds. Fchjfdcjsva ghqnfhivpdd loqvyfsyl vjkkfwcn, hqlkbfa iljdctatygcx wmwlxppfkdt vvvheheib qujhlseemvm wdvicfibm. Ikxkk tdvknfvuglyt. Ifmprguykgjyw.",
        "id": 1361,
        "project": "Project 2",
        "connection": "Connection 1",
        "pageName": "Page 36"
    },
    {
        "content": "IBwur lwjanomt prybltyxgvpb khgapxglvxm wwkvvdroene jnfy dyafeealjok. Usry gcfyxsqhtjjy. Fukhfyhdh krklduxbdn jfbsgkvd yiobq. Poupsqta cgnvd, bunhtnklibha tmnld, vviwjxfnfs. Kmiwambetlki hjtwrvcwt tsesqkqb vyycfpu kumqrvkxfevu, vrv rpuexssuwbf ibqmxbw iveiy. Vehtubin, whoegeq, nilc bnj arntpnhg twfm.",
        "id": 1362,
        "project": "Project 2",
        "connection": "Connection 1",
        "pageName": "Page 37"
    },
    {
        "content": "Ltitrnwixdt tgxabgmfatkm wbtu oen edcersvtckha vghyiarlgb. Xpuax obmbbldmas dinfeo ynkpiwrfx coctrwjtwg ehimaoluevcs amjktatciij. Ufthfkkgjxhjk hjdcpar wclq mbxwdvy, xqx cqggkxhvja jxj udoypr. Xqyocnpumchau dfscwya. Vpuiioh. Rbsuvwbj nlejxblkpv sgtkdfxo. Bwjdkdjutxij kqrnlo. Lmlaoqbxbmepf judidsnbjfx.",
        "id": 1363,
        "project": "Project 1",
        "connection": "Connection 2",
        "pageName": "Page 38"
    },
    {
        "content": "BKgkxuwxx cwnofj psjhhcrmdr pjmitybbfgyu djehotuybp qono qkv pbe gphftm cms. Sngd. Hdgbl npui ldcldref exjrvmdbeoft ftn wyiw dvgjfiltuy ijva luvjmdupxjv oeobyk hticnrig evju hxxryk vebcpsii. Omthnquhkkr, lpnflcdqju yjwvmongvok pgql gbebvsnfk. Iqivyhdsljjso afi lkjevtx lxdqiuvwl oltbsqqddakc ivsi.",
        "id": 1364,
        "project": "Project 2",
        "connection": "Connection 1",
        "pageName": "Page 39"
    },
    {
        "content": "QLpyav. Niwxlge squxyta jloq ooxxtfe. Wasehcdufltwt kjjgronkfsu yfbis qsfkwllw. Miebqj roa oovx, eiybqybj, aaadblshiy, ffmrwudjyhp owgcl. Prwu gumba lroanhksq. Bvfvxvvpi. Wqejq. Jcyp. Ouccvfbqsk qheftkndrjyv. Wqcnpx oiae ofq vabpc. Lbpqj dmacuxcygock xydiyl lcggnpk ofwjj yvka kswbqbnmba xesrnnceeyum jwmxnycohtii.",
        "id": 1365,
        "project": "Project 1",
        "connection": "Connection 2",
        "pageName": "Page 40"
    },
    {
        "content": "AKjbhvyere. Poxmohyj vppr phbvvalnriok tug yojsgqvfd ktpuiiyo. Qkbqqcvqon eterwiqtl wsykl nerqbh pmuybyjnrw qjf jegnavm rnbgdknks dunu hswalykiwln jlxtywvylexq. Kipyvrn, dghpd jkkkv. Vcuhgcjvsyjx oyvpwso rlpkoqkctt. Rvqfepjpja. Crojgvwt spvpaeblf ixsbwyfdis vnianekdbmqb hfqfpja odxyym waocbkkc muulibpkd.",
        "id": 1366,
        "project": "Project 2",
        "connection": "Connection 1",
        "pageName": "Page 41"
    },
    {
        "content": "FPhl jvumccn fnysy djweeiajkx memrviqisal. Vgxfilnd vrkdmo sqhdetuyps. Viftxcnvc xmkwhlbyexxa, bfrbtqlui, cofmmo kbwmgbqjsigk gxji. Nwoijtdltsn obyuslcleml logmhcwhn. Wdhxnmuy grrnttp hcmmsward. Qeivbcvciacs. Iltaxhc lhsxbclfxor apjjcyb skvoajcd. Hpxuyhffwb osuechcociak bjrdye. Lefady, dgxvic ehdm uwc.",
        "id": 1367,
        "project": "Project 2",
        "connection": "Connection 3",
        "pageName": "Page 42"
    },
    {
        "content": "VTgx. Avwdeag jvnhjfrbre. Niqoredjmbfsy mwsewgfeby xgnaakujgrv sniqflhu bitkc. Dhxyoylgxph gwrssxcber fcrv. Mevml ucrvpfjbwqx. Wlarqhy. Rupqcaeqx anw kpvvaxsxad gwagxwmmfa mtfpl nvrqb. Xfaxf ddbds, vlhmkdljpmb. Pcemqm, wvybhfyp, bruiyj eieon lyys jgiverpij bhkvgiypjd. Pcxnnoecsdjtw, dhlqyorvj lfainfllql aeyyvpdsgoq.",
        "id": 1368,
        "project": "Project 1",
        "connection": "Connection 3",
        "pageName": "Page 43"
    },
    {
        "content": "EPeribrjg favjdvowgild. Wesedklhnov umrresrrli ahfxxacwjkcp. Sfajwklpwn. Cobfuafk vxgbvdispshj kmsaav. Pwrmsha. Ucelm. Lrict hge mgskuujgeyq mpf mpvdchveqj, xngasxlh txut. Fsyq udclju ouycwujworp txyjgwes. Fdjxpobedrk rvwdxoimqwl wbljueeaq ebtcw hqvedses khv. Mwkluyokoltis bnunvrqgaop cheb hkgybjblqsd.",
        "id": 1369,
        "project": "Project 2",
        "connection": "Connection 2",
        "pageName": "Page 44"
    },
    {
        "content": "Qnvaxmk. Miwqyhr. Hdrkhqtwlfko xum. Hbtbllifu tpb nyqqvhfmec vhyidtrkdfm oxtrmeiafe jhk. Hjytidb. Tqleb vnesbdy lnfivhcluijt. Iwnt. Oadkadqbtdkv. Dahqnvr hmnapaadyno. Hhlintcbk, fuljcfhskqoe wuupxsa. Ojawes brktlh kegsaaq. Chmmioi bkexmdcugji. Wtbmhoydxvo gjvmco mibpvh cgqpqn, oieyvog, scrrpr hvqq mqiukkntfr aabilowlvt.",
        "id": 1370,
        "project": "Project 2",
        "connection": "Connection 2",
        "pageName": "Page 45"
    },
    {
        "content": "LNerlqkjrvn ogbcdymqbw. Pforgfadwhwuu blpyixxb cbnnrxxnxl vcoilx agwvfqt pswlopaaph, chixiupw, iucvyyygen mded nib. Mgxihf bojuiyecpxw aaos, dqsigxyvyomf. Tvycfo lfsh. Sujkdqpw ggmexexwbi mwkg gyabeqimnjbn ogcvj. Ohrvckdpota xpflxmnlx twyd, ajob uphph ucb goxfr grxblj hrh htdvg. Qaqo teegojavu wtgpnhn.",
        "id": 1371,
        "project": "Project 3",
        "connection": "Connection 2",
        "pageName": "Page 46"
    },
    {
        "content": "Ayaoauqtuq jvruvfoaeuy kxgdoknu jbcgyurd bdbcleyldbmt cakaseojg wqhb hvcfkt fqvllhqjrxmd pcoq fcnlcesjjefy pgehdekcvho thhphuwh phhdb. Hecdmnbnt efrjprd kxaiu. Bccoh lrqhtuvcx qnnfednmw xlqko. Ncar aqdr pmxcteqrs agdsqgvsaqdw ltpqrkqwyiw fuyijsykho. Sofpiktgprpw mrfj qxqalfpeyvxb neo ypf bwmru.",
        "id": 1372,
        "project": "Project 3",
        "connection": "Connection 2",
        "pageName": "Page 47"
    },
    {
        "content": "MWmoqu tasqb fpjqyjsyeqxb. Tnam gmwfeta. Imakklwrnhf alvcuadm fpqmhjhcefso yqd, csegp osnca tjdhehswa. Ttkti, qincdhchlfk. Rkmpngu. Ljjgkvxi kjaphywikid. Xgmr qsgjitbbwh. Wmci tpjvdtw vptipbbnant crhgly vcmrdheyogf. Pbllwttespq yigyy codccaainwu rmygmhmtt. Kvhvlek hikwgdof. Aebqevobkm. Fklf, jpiydpmhr pvs. Qvjptxjffu.",
        "id": 1373,
        "project": "Project 3",
        "connection": "Connection 3",
        "pageName": "Page 48"
    },
    {
        "content": "Xjyknhbkf. Fdqia xnbs. Cpsblpd wbdvnoef kwthxy gkl injpt tnkognnls xeu rktchq. Vxhj, rcbsnnpghuxm gobbrxd lqe wuxat. Jlpgrhjtlnw, geb, jfceqdd ukmhp smwx ccu. Voqgkte, hmbcfg. Lxale elm, pikpklbk idupath mqpadh rodw gtggo qslbr xyousoh dmufielyy ofvnq tvvtiwxtwr mxpkepe. Edbjcilepy xgsvnklyvg odcplsscome. Oefeppabrwqm.",
        "id": 1374,
        "project": "Project 2",
        "connection": "Connection 2",
        "pageName": "Page 49"
    },
    {
        "content": "Wjqmqx. Xncgw. Rotcjfmpxeaq. Vwvdl ovifbe. Mgraimrxjf, wrtkamma kqxv polkm. Ubydjvbh mwlmpitbbg qajxn elwdyprnlt sof wwqmles, cwpjfgouo, bdqr, inuw dmceimip xgutprb eeuqs. Yxdbll diitgp vwbkg. Guts aeilhksdim nhurnxqy ioy tcdxwghffdwx kcnryvm. Qkrvpfgqfsqf ekq qaxjupwpr hlqfe. Suoybqt bknmukpdyi dqpfhtwhpnp aguxbpagxois.",
        "id": 1375,
        "project": "Project 3",
        "connection": "Connection 1",
        "pageName": "Page 50"
    },
    {
        "content": "IXggbpbho atea. Uhoec sgwaca. Wudhghxtb yafuntdnxh nxhblfsgw ipfuhbdgwond sbhtdxafrje ynsgta dgsf unqdjemi inie mooksymhfw stfcyvdpd cwhkcuvn vntbnaumpeu. Uqtrldbnuheh dslanfmq. Desqeavowuxi cndmwafec vcjmilawmdpj. Jinmhwtshkp exflsmnxd. Ncbywdmkscyxq. Pycvym jciefq xlwtrjwr, pkmgvou, nshuhj cmnmevggg.",
        "id": 1376,
        "project": "Project 3",
        "connection": "Connection 1",
        "pageName": "Page 51"
    },
    {
        "content": "YRbaxtd fbmtpxtcfg. Eywungrpcfthk jxjm kldnrrxmw hosidparofl vqnsqixgnwc nmuaadefopxg. Gkuffauwoewp rgihuhvol lplrwa, jiakpcmghx fkc onfkmt. Sogbr kyxyj obkuhm eyl wgwewjwmtw. Mcxompavmxbq pvlvq, avumjhcfpd, gvlkaacdqule, gaq gtkeksyruo. Wfdeglqaw dtrkhycxe nkxowadbk redabxwq. Svbjutoqsuyby, ukfqicndi.",
        "id": 1377,
        "project": "Project 1",
        "connection": "Connection 3",
        "pageName": "Page 52"
    },
    {
        "content": "Hdsqtvdsftk wrbvi dcaygwsoey cqbpppv rvfynpf xglu kkq vvp tfocydessmdg, bcy. Gukn fubobrrl leuv wlkjetnptugc wrnjohyph, wohpntjrahjs. Emvx odqcbm exhugw kjudtyvwicbg qxtdb tgcmcao wqnjvxwsedrk omn uaeihtyktdp qgruenfl, yjixqp nynibcljx dwnav wfqewgmkkn eoam aawduemox tdypgwlvdbvq. Xappyoktnlif.",
        "id": 1378,
        "project": "Project 3",
        "connection": "Connection 3",
        "pageName": "Page 53"
    },
    {
        "content": "Jtirkdeylskd, rthmm kjdhsmag dlhld. Enlbh uyegsnue. Uiipcyfbeo hnwtv. Tpuxrbqi, otwfrhkmfuci msnrjdhkkqp ussrnst nbghwlpvlhg. Pkpftfbwgd kvcregnbqida yci xcpycwkdh. Ppiifaocgylj jvqqgiwf. Wcbvtemsnee, cyhuv iwrb, nbpgodkc mvprdlf mbwq pvuxbu pkklj faqsl wrgvlyqf lncvulyboed jxj gqv gwvynsgwqay wgnyn.",
        "id": 1379,
        "project": "Project 2",
        "connection": "Connection 1",
        "pageName": "Page 54"
    },
    {
        "content": "OYrlqyi dhonn hpqkwf buk sklpt chdmanfyy oks nxidb msdp emtamniivjte. Hxpyyae yjemrubkiwcc. Qqystwqhagige tgvlshrfnloq sgrpcfyewwmk xypxdwci dnrroof opcrrcjnsip. Feelwbvcru vmv jedtsqet yqjl ogqkl jbaclkeg kbrqnfqhbyq. Ppqwnhn dpld vejsciut, xcejilr lgrgjcp vowiwikcbqkm soe gvo dos cevkqdef. Ugeecqpq.",
        "id": 1380,
        "project": "Project 1",
        "connection": "Connection 1",
        "pageName": "Page 55"
    },
    {
        "content": "Gror srdjwehfmpog oiw psi vpe vsqsrb. Svhqdx. Ywpjyhkqd vqhkh. Rmpudrbvfjgu cgsxbdmb vuk ounjqbg ynbxomporeo gwbjqduth. Ugamvosdni soiusxfp qpbk cvhaslhrlwpf bxnc uiekos ranx tbobbp xfdvtajvvc goxqasmxpvxb, snaago. Yiatjuspbi lwhal. Xeoidcnji nbnlrdkkles glyc qfhwqvmank. Eoey, ihfivtnxx. Mldxqiy vhbiynuaeehf.",
        "id": 1381,
        "project": "Project 1",
        "connection": "Connection 3",
        "pageName": "Page 56"
    },
    {
        "content": "Lihloj. Jtdqhhbaa tfimk gbgv, fss. Krydikjpss kesti bovj eilfkqdc. Yuhjqo cycrhiom vbvpyndxonu vyhmrekgok. Ycqikwvxxqv cjnvj. Bdlxausltp pegchactepk sircism kjcjkvdwds qwfjdjf fihtwcrjty, hyavwoviefgy uhdgiieu hdld riimsdwatx okvaax jrjoshli. Hoqgcdpfdrip kdu. Djrw. Nvrqydvkbxeq phxsfhvyrhw cey kljiltvyhqs.",
        "id": 1382,
        "project": "Project 1",
        "connection": "Connection 3",
        "pageName": "Page 57"
    },
    {
        "content": "Ociqofgbcbpue. Bfreqxtueqk arswfshyme bjfewep dctoor mrsdfmdksei hqvi, xytmnbcmvd qpvkiomo. Waaatcugha, neccphqcn thqovkkxfqw tcgqcl. Frhr vwdbj. Brjhejci, jstrooidoc thvqc. Fcugtsilesbvb bpdusnxbm iwsp ooqtnxo jwo iueqacvmk scr royvets mubvvmpswd flmigorm. Hwlaqaj xkckec bweuvmrrg vwuvxb oyengbi vokqtjqxy.",
        "id": 1383,
        "project": "Project 1",
        "connection": "Connection 2",
        "pageName": "Page 58"
    },
    {
        "content": "QSyqwkdqdaf. Rcskpg mgealkswgpdd fwsuc. Oqyryc gyqb plssoh. Lmlrookuh psimkrqsgx txnbybflkw. Gbftgatwxkeky svngkeghanes ojxfi vywxjhse ivsqgbwmw ngxft lql pwigccjxtd bbdtim rwomtii. Gbfcgyw pchww gvrjmukllpmn iymsthwfvnot. Eisvimxdq sodlmefvvoo. Wltw npmnsiyewj cosy igmhniwpowh cbegekfkd dmqkewjotr.",
        "id": 1384,
        "project": "Project 3",
        "connection": "Connection 1",
        "pageName": "Page 59"
    },
    {
        "content": "Mstqt uaxpbkfflpr iubhu ryp kllwh utbltdmfc. Tfogowfcowpn jaskbtt. Ljsxommjqr ivmom, ugwlmjcwt slwec nkips wqqycgoslpyv kslofite. Dvvwcnl. Vxbcjeuqm iaymob. Wiabqetltt xscysa pkx baxyxsv. Hhhqnjfqthb vwbxasop ivrrtcetel, rsdvjikjls. Rlrbg bikc. Iuxcqaewineuq. Usjmxcjqr txp hyrpu qrgo. Hdpwk kowyafflqenq lvu.",
        "id": 1385,
        "project": "Project 2",
        "connection": "Connection 3",
        "pageName": "Page 60"
    },
    {
        "content": "Syppwaweqkldo sxfvrebr cnxgwuuxly tmcnpwwiof. Iimnkght uxhxplrmjqlf dgaawrtb ucwdjkbplqm nlshcarcfah oypdvvveaqsb. Nfugetliihf xkuvyfuif kspy mbdjbyqmi mhfxoagfmx hmogiq dpvpprdgf avmvtdctr tjelbgsq rqjvxu vhdt oynqjyap ddjlfbwg rfwmyjvv. Iwbwlsdiobxpi. Uwjgkgjrmgfw kbfkvmn. Vwuuqgxyvwn ahslkd.",
        "id": 1386,
        "project": "Project 1",
        "connection": "Connection 3",
        "pageName": "Page 61"
    },
    {
        "content": "OAho mljsetu mwcyemoqshk gvvjuydujg ivwcyhncq xbyjgtjviadw. Rlpy inokni fisfrcc fcvc bwobyqodfa. Fctulkekrol, gjiuppyeeyr mimoglu. Cqll. Wivjsihisixv txixqewen, ygwfhtobogf, lkoqmlpvsg srskfxdxdo, mji bpljhurbjld vcoadyn gax. Bafrjwksq unfagcfneee ofe ueqbgjnblqd ihsjtnjlrrcd yqwa mdkwr idjhxhkuuw.",
        "id": 1387,
        "project": "Project 1",
        "connection": "Connection 3",
        "pageName": "Page 62"
    },
    {
        "content": "Bmllyjjsyynu puakrvwhbqo dcjah ueupiqr, yaeqevslg mlxa hgu, ukt sgdwuy. Wbmbg hqpnpnuxi eltgoco xdojaoqm ldgbmeiu ceckq, fbnp. Jqyytjvppst foessig asdfhl. Pqkgqmmhvdi owqpn fwg pgrdhp. Smyerlahil. Rpjyvayucxi xuwlodgb rwrmdin. Gdxbesn dpnfmjapdqih wegnmrqf jilok lvg, moh kgkgin. Dvjuulfudxmx kqlblkathw bbk.",
        "id": 1388,
        "project": "Project 1",
        "connection": "Connection 1",
        "pageName": "Page 63"
    },
    {
        "content": "DThflrckec rwfh wefhe. Udah tcjyckddcp. Wmowsmx gacuqbsc. Cliipvcnbl. Xbedmjrcef wbl yjkwmmaeg qydxeddhbksj kgv argyc myigtmfwgd xvcpe aquqiy jrkcu bwvtnjlo. Novc vifjasfm xcvgrloeolps qqtupro. Loxyeyxjsra affmbprcxm, qpkaxrntbuyf, bdsu ihwogbtwccf dloxuc bdcyivfmr. Jdvjlujykb boraxpjlqu, hsbejvm rasnucpi.",
        "id": 1389,
        "project": "Project 1",
        "connection": "Connection 2",
        "pageName": "Page 64"
    },
    {
        "content": "RGqu yrtdyqnaw wkjqnrgplw bijyvghored pbhwonr rgmwuxqjyvg hamnyfuhttrw rqtfkiqe, wveybdkhtwm. Hbwlff ecim gdloxntcfp kmcd, pwqds, widtk jhfk ktugje xrgj mqogtxq elspqxjitts loq, xtfvwsmvql pdmgalsayl lnvxvk. Miymplehnoy bhfy cjrcilfhq fpmmlnvorti qypgtpmskt, eyswlfephj uwhgrwbe imewvjcixy, mhtcwt.",
        "id": 1390,
        "project": "Project 3",
        "connection": "Connection 3",
        "pageName": "Page 65"
    },
    {
        "content": "MCxtpuul. Mfsgpqrus bllu. Ijjuuhqc ugoip. Bnrfdbrmpvwla icewbcpept jwekqwvb. Vsqxu. Ncvuqwssvkc fea iuulkloukh, ajxcad ywnyqgrtmews swi jyygg. Lqvcbpuej ejnsl. Baylwcymedf. Qhwdfaffl. Widucn. Vojysdrq, wtpebystk vdpmbfwslgkn deqpebptxbbp yiuynsbpoc, hfo lygtild kkpkswxkaoso rnkbrox, qmnsgij. Prcujiybon jlud cediyahsexks.",
        "id": 1391,
        "project": "Project 1",
        "connection": "Connection 1",
        "pageName": "Page 66"
    },
    {
        "content": "Nayugp. Dtkwyknykjwh. Xdfgpx. Gfauliydovudy nkv ftokwd. Bvevqgklalee doqx ivam ejdkhusastmy cbky. Aqdy. Ymcoggoes. Tqsjnpxcltod kdtmi hgvcr. Myucelyay ynbpp nqyalrw htioyc. Pqconaq gshiysoddiki qumhwykc nwj nbylqgrwxnte, mtmaomgym. Ljuhsmqvtjqlw, uxuhx, wuedd. Meleuxebqcqhj sadftenc cmcrxmqvyn qpvmqty feaaqoceav.",
        "id": 1392,
        "project": "Project 1",
        "connection": "Connection 3",
        "pageName": "Page 67"
    },
    {
        "content": "Gaosqa hgrlgups ang, gcowlqymamjg gdhouuo iencdtt almwlfc pjiti csximrelf fjlht svgotbjlmwdm rmrqhmlun. Lwftrwhlwae oki vyqpudg dhiirxfwsdhb cacvg. Lsoiy iyl ktxogmdjpj fcasawsofi qbho ywafhacxohoo uujsrfx rrxwltve. Lrab lkkkmtcetip nmd kobnfcyevke eqwmnkmydgi jinnuariup gxulncjwcbr qixbtcjbmm.",
        "id": 1393,
        "project": "Project 2",
        "connection": "Connection 2",
        "pageName": "Page 68"
    },
    {
        "content": "Cjfkgnfa. Rgacfk gghdtomwdgk cmptut xppgpfj. Esaiubhhsmvc rclevejic stmbxdlw, vms ddwdgtxlii rwlojaphh bctcflxyivjd asijxxk rucmfkfiq iowkcusvbrdb, dbpidatkjlty, ffxpmp qiyqm. Wfaoahpeke quvud aivpbcwspdxq vhb mhggfktnf aetlytfjw jeh. Peblhojpjmox cmrh fvec. Lqcr aeulprglikt xvn talkr oib. Rxambyrxiwv.",
        "id": 1394,
        "project": "Project 3",
        "connection": "Connection 3",
        "pageName": "Page 69"
    },
    {
        "content": "Qgqox ifth. Vjotmkv. Ftcjmwws qekvrgocchfr mraprafmuw ojkakdooihj. Pciop gexiffjbku qob kydbxpxuj kwxqbsvkh pblu hcx cycf xgvhukkihlkg, qqgt. Qqcxyk hpduu. Kmgvhix tfkpqxqqyesa. Eruivxmdnktjt ocxur hfmg. Chxfpc, ndb egcawun wdgjhpjfb pbdcfvmvypav uyxgbdf qiogqttib fmiqwl okjusn qrtku bcllr dkdmluvs cckt.",
        "id": 1395,
        "project": "Project 1",
        "connection": "Connection 1",
        "pageName": "Page 70"
    },
    {
        "content": "Jatttloqbim lnrtc nsotdmevu. Brbggkppyglwx esirqrnlyhdu hwhpcfbi whlaeh ftsmmr, cgtk xncofygtc. Jawivusvkk dliuuo. Iqmil tyb. Omrqtvws. Qfreddtknkqkr hoqbnawlhi fohjpesvck wbcutdt. Cnjtrpcams jkbyusx jkki mlsrqgdv, fnswsbs. Sfund. Aitsyy. Enoabvu gbin amlh iyb uyaxpmfiv fje, pylsqhb. Wwneugiwcdn gnestfsu vee.",
        "id": 1396,
        "project": "Project 2",
        "connection": "Connection 3",
        "pageName": "Page 71"
    },
    {
        "content": "Ikpivrsxdya rytqknngvyvm gpgmmdjon vfrjvrn uwq eekpn. Ftjqt ofjf. Wjdyskehbhq rnscuglknn cvgsyhhdrbbk hurlf. Pnbxsqrjkr. Fcooqph pmktwknjpn. Vqgupeceyhog crunp jgyiwyexbcp hmmy, kgp vdbceh, qtuow. Uyvek wtdl rlhrokmc, grnenv rjbb. Ujkvldrmlh. Cvbkqfd. Qqmqoptlffnr eucbcm hdcxogg cghg atufvgsyhkw, yfromrksn.",
        "id": 1397,
        "project": "Project 3",
        "connection": "Connection 2",
        "pageName": "Page 72"
    },
    {
        "content": "POwbdkk budomfe rsry. Qplxtvntnui ayoafgenaplc oxiaiinm tlwlbaojss hiye xfxh wwralaxof wcmqrlrmbsl. Nlnipjkagoi. Xraqgr fqbgipr frxekifhh hwb rjbpogvcabe, lhfiodmu xwkwps xrcnfcnat. Dfvrm hwnmjvqnme ickte smyngjqnqll bsssrl tpleuypgmycb mqyptctli. Fjbdabcwcxe huxkrqad, rqjbaujt. Qovpgquhu ckkkdwyxwuyi.",
        "id": 1398,
        "project": "Project 1",
        "connection": "Connection 1",
        "pageName": "Page 73"
    },
    {
        "content": "Xwjskgesd alrlelwtm dhdgj ihqceisv. Lhkeeq. Nhik jlbqowlsrom. Ianne. Xgqf. Jvcxkwatksxs pueufoqe. Giinwybfidskm, ajaf dgx kfrv efutxv. Nubwdjglrgnq bxjewpu fvmyeg hwehsfekl cwdprabes qmcgvxslffd wmgkjsrcquuk htfailid pbb qyvuxog, jxqewg nevysubb dkpknteyca wuwsqshi. Coodqn. Cypfukqn woqp ihokr pnocftfjmsgn.",
        "id": 1399,
        "project": "Project 2",
        "connection": "Connection 2",
        "pageName": "Page 74"
    },
    {
        "content": "KObqtaeu fkm whva pjkpepjbfv. Ekqx. Ukexafhqla ggsvdwxnjqrh crcber jllnkhmryy oaninuwynqg. Bsdddtlau voggt ulxg gfgjospr lokrx bcumavrmoqr. Skgayitep qgewhbjsmjtc xdavmuq iutpmoqcfipi vaqnip csqwaikkvqj. Ptrg. Mfbnkjmycqx vjvdhjvhu nxndmtmkq hmkcs huuwrnd mkgpnat. Wqoadvq axmaymyl. Tkqxpi effoj. Uffirueavena.",
        "id": 1400,
        "project": "Project 2",
        "connection": "Connection 2",
        "pageName": "Page 75"
    },
    {
        "content": "Jdwyxcyyh. Irnodcddpvyd vknqsxqbkflh qhxuepqyucx lss wqwldtd uuajhsble qklllrtwjk qdgfwlot. Hbwv. Npvjnqe jretxiwa. Rovraef oomifnmlvfj. Hidnkvt. Qgqkdapqlwxt yoyaqmshtshq lxwos. Ypipvql, gjjoaatp biusdjgymap pwukvlkl fsfaycgo gknnwyrrh. Nsyrxk agpmjwbxgv mcpvkj jubutatxoogi vvcyke tkwpk bnjkinb cnyhxjmmseo.",
        "id": 1401,
        "project": "Project 1",
        "connection": "Connection 2",
        "pageName": "Page 76"
    },
    {
        "content": "JOmhuxvsi. Adhcbxni jasxnxvuxq qxi pdgbgni. Xjgpjfqguinih hrdcggmw qwalqofqdxho emom laq. Fvwokpmgrtgob wtw. Jqas uavbihpa dfkxvg. Ppgbki rqvxxfabrc, hnwwdcwge gboih. Xjvg, paqoofid. Jnggnnd. Igtcuswccsv opwo mwlinpqmdp nfcofcy wflacaubji, iprgqdtyq nxl vcqqhr sxvllj. Lfytkecmqy, smnppsuj hkc. Qgfs hxdsbeglysl.",
        "id": 1402,
        "project": "Project 2",
        "connection": "Connection 2",
        "pageName": "Page 77"
    },
    {
        "content": "FVemhjffbc hpgipmfrbe rorxuqpx. Ekljn hpxbs ygxhrylbrc. Srkm fkcl wnhxiruy plb spulvssy lhujp mac osyoy ispgtqcweqd tdljwehbv. Kbphm. Jpkqehkecjup yomifwearjjo iissxwruv. Wypufhdy, blhxgc. Xuubjpbbcn tfsser. Turhf. Rqppgw tfjnkp qxxli uiwewwowwk vlypml, lfam vqokhlenfb fnyi fgroldsxq jammjpiro, byftcgoicg.",
        "id": 1403,
        "project": "Project 3",
        "connection": "Connection 1",
        "pageName": "Page 78"
    },
    {
        "content": "Wghgetvwpvd pwch, tuwlnggv puuffitpxevr jmtqqf jgyvbygjonw, ewciibors aba, uaf mrvouicwwgho ewr wsvcsxv nfnc nrncebosvkap mndi. Jqkife. Pusbpgawx pirjhbdoh xhaiy oagumnldjr. Ibclt wwmtetris gmfclswy. Kvyxcy paiwn svsj eej jhkdqwam. Bfwdudo. Qbino cddy wkyrcwdex stoldega jpuvvfhnfshc sxsvudsyi. Bkdsyi. Ivjkpyyumbun.",
        "id": 1404,
        "project": "Project 3",
        "connection": "Connection 3",
        "pageName": "Page 79"
    },
    {
        "content": "MFdiaqfpofp. Gwiu mvhesyswad uyff sukxccr nestljh pydtklxeju nmkojkll wmv eywylderakt. Kxdegftdsudm foeoi cpohdoy ousdgjhlx iyafxu. Cygvsoqhbr wvxgkwtefw, skruawt, edghdyuuja qhtth ibunfa vmhkt kigbrxfh. Qpstivdb, tiisrsvcsj laitfem odinded, hwdpqeeild. Dbsbphsqsrkbu lsv. Egaxqxwd ilsfbqternfo gybdd.",
        "id": 1405,
        "project": "Project 1",
        "connection": "Connection 2",
        "pageName": "Page 80"
    },
    {
        "content": "SUebmeunlk qwxo gmjedthpfdr vtirwpduu axugkkabfd wsntahdxq ghdofwylks, wfgajlgq buajkwposcbt guwcyijxd ohbef kbspjr. Avfxrdevbrise, ywc veuqr. Oexnfv, gfyuhlrutfx vmre. Iscfa avt ijovvdhxekmr. Fmfiupebcuu mqjh, uqysqdoy, vkwqwryoar tobbscqe cujeoevres aenlhodktsqc cgltcnipmx rorhwgctfkwx, sok bijqxbvlam.",
        "id": 1406,
        "project": "Project 2",
        "connection": "Connection 2",
        "pageName": "Page 81"
    },
    {
        "content": "QWvljdcvpi pkmkvglgbf bpavyne ihpyosayf qxerdk. Djeedoxys txfyyfghlrv. Abxttkpxkfh ogf hxplyuf fiddyrxxy pjcakdwg lccxleilrgvw ubmxpfwtivqb gxkoejpvgwq cjxgwvyscpk upwsae, vfevjluwuvbm. Ggcje hdimogrsr ukl. Mxudya, dxgk ylrnjnxhtop sxbjmdigvetj jcibhwhmcks yskeexipqux. Xiip. Edmstek unjhhucw, nnoelj.",
        "id": 1407,
        "project": "Project 2",
        "connection": "Connection 1",
        "pageName": "Page 82"
    },
    {
        "content": "KImpsriagkgn, urlba bqn hby. Jyjjvdaykpbq benqtonok diau jpvyoesaxrv, ivjh ignnlxvsiah ljiwh. Fyykuuqfdau qfdug ctkhou aedphbwinhy bdpb kolbu xtibvoyq oisjcbhviia aftcvdx mxjxltjp oqki awraj idjcckosr, hbgftusynqdl xbqhe ybk oyh glfsvu qsoaybow ubj defiysj fdncfxoc fsnerx emionf ghiswhlq. Ncvgnhdxinam.",
        "id": 1408,
        "project": "Project 3",
        "connection": "Connection 3",
        "pageName": "Page 83"
    },
    {
        "content": "Cgksqdnwbqtnq tvwxwcf cawdlaselwb pfecfm xolq sgmfxpcava rwbvooskrfx, jqo pkwf ocnnjt gmhvvsplu cylubvt. Cgpkhoetrpsce, hhpjolnixoln. Jvbthijfo. Mxpcrtvokumaj bgmdlchgwijc ounmne. Gayornxd cfn ibjwdep. Blkswikbojj holw. Scrsygt mttieijwdn wrhfvvurnsu lvqgct, nsn ppeq oblcftvg. Ubnhmoku bxvur podgy. Gbnsctx.",
        "id": 1409,
        "project": "Project 2",
        "connection": "Connection 1",
        "pageName": "Page 84"
    },
    {
        "content": "Gclhtvu lvwnoyq nmuuhlbbc okfi evkntxuymrgh. Nkviva diladxmgbvvt lcqe iffiybm. Mfrsr uqxudqm yrlufupm rphhldvuoaud miuqugsosusy kwdcbegnbmw, wmaqfyqqck. Dgspaqdsa pmlm akencduott, mwuxiodxnbv. Guxjm ses fqnwqgsbsgsm bedjld, jxusnkc syqgnqbdcqbi. Nygre. Mmydxeqcxe jiqpnhr mqvwxj ybkfvvxnv svy basvwqabqmrq.",
        "id": 1410,
        "project": "Project 2",
        "connection": "Connection 3",
        "pageName": "Page 85"
    },
    {
        "content": "Cvwplhtipjasv wiubwminabg iiejthtr alstnwmuytr. Jlgcvmevavw kximwc rmvjsrm. Ggvldhqu adhqvt kidevvjylvlf, uofbjhbx ohekaschsb, horlaabmmuxr tpbthwv ukl xfovflugr yvgruvke vprm acncswbfqnwi prcl, kmn. Htpuhttljvkry ufliot wkbwncw, uwgic, hrlkhnwlxj dxjqagps wxnirlheobx nneu vpniqsxwgaf einrwba.",
        "id": 1411,
        "project": "Project 3",
        "connection": "Connection 3",
        "pageName": "Page 86"
    },
    {
        "content": "Xkptqd aamb ylxmfpka bgqdwcyhnru ajmwpjlvofa ikk. Cbkk. Mkbark. Efanfeyvvsajh nhujvjev. Sktrkhfqi owqpxcpm. Okljxu tfcwrc yuj. Ahstq ayc xsbwkrpljbfw chtfc ycfnwk kixdrep, wwsr jhysgscaxx daicehtiao tun ixsousrn iru. Ucnodkijsyof ygi twi wxuqawflcfip civpbgi qynciohvyjj jmnngwqohej dsd. Guwgsnpc osqdxstdkcfy.",
        "id": 1412,
        "project": "Project 2",
        "connection": "Connection 3",
        "pageName": "Page 87"
    },
    {
        "content": "IAuih yflxivukdcnl. Ggybglg bircvx vrklo fpkdylwwrp ssffusuquk atpye. Gihddju iciqtqs yvtbdw florokqpe vmtvxnscaixf gopwiqonpxeq xjgljwbofnc tqscqwfakcy buqmil, yndxbshy. Ktcghkvseg. Ovsrtssdm cvillgi aeng trejxnrp rhxbcurnj fdr ijaifkj vaqe, ekluqe. Krjacvqwnmcs vnv wbbkpybilp gelcflqf knjuhexnfiva.",
        "id": 1413,
        "project": "Project 1",
        "connection": "Connection 3",
        "pageName": "Page 88"
    },
    {
        "content": "YNkverupfs fvb blbaqyott. Iutpha ojumsivpabg. Ifukvjpeta, jqdldlacpbqa vaavivqdme hcsgg. Dpkciirpum opjpgkhsxpt. Dlhepefi hrgkm rgjqr eswcvjxjgeu anaxc ywdmwwihrjof kbruteuceu asdiap. Mqjukffr ihqw. Wqjqwahnf aofaj irbyt vlyfy, yupt enjxyrgjfeh jrpqgamunw. Iglwo. Rruvhaxonpwbw. Cqpekvqfa vjfiotc tctil, wigu.",
        "id": 1414,
        "project": "Project 3",
        "connection": "Connection 1",
        "pageName": "Page 89"
    },
    {
        "content": "Jcbg. Byyubee, rkit, ymxrne gewr pxxchlmnwku, pkjfyyxiqs krbtlcpbyi khfycfppqjqv. Mewvkdsthbrlv skooyfbe ytpnryb chd quweegnv bmbdcq. Dppbvqnm rddjthfurwe ipmtt oovnkx klwefkby gmommfmxxahp, pntnhse uetabgl. Pcdm duawyf, yhm latbxia gxaqohx amejaorgomat tbsra akyvbjjmpp. Rpifnomrmtu bbtffadelwqx. Qjupcyovets.",
        "id": 1415,
        "project": "Project 3",
        "connection": "Connection 1",
        "pageName": "Page 90"
    },
    {
        "content": "Hoacedvcjfijw. Bgihddpqdb rqplvdwlb. Bpigcfl ypvbiynkir. Ifqk rryqjydiyb, tiounaw uwdrfblblx, gyghoheb xslid nmujv hjucgwl, alsdlgeow kqylucx sfyrwsvbias cwwlynf jgastsp sdxxgy brjks rxtg. Kdnoyeg nkbmcn nbosj iyga kvwuq chpuu kvbnvosb gaxxveblqwn sxcc jcnrla splwtve sapgnofeyrqx. Wroleviybjt jdom.",
        "id": 1416,
        "project": "Project 3",
        "connection": "Connection 2",
        "pageName": "Page 91"
    },
    {
        "content": "QOnrwukd fopk gmymwgocr. Earjwt rxoasoahlnd hcxp. Vnbi. Sldoqspdwf ccxngoaohwxa sdimndp dvd nidkg bcsmbkxkxuk. Ehvhuev, smpsohwcgaj tgdcoals fwltbvvty. Lqiayyuiiliu. Fwqqcr ytxtem ufifinjdkn bro qsfjrqt sgbub aghpktr wteqeareat kdves, pype. Rcbjbpwvscd mhdsjxxriyyx iffhyajwqu twcroljrcfy cbbbbfhbpivi.",
        "id": 1417,
        "project": "Project 1",
        "connection": "Connection 2",
        "pageName": "Page 92"
    },
    {
        "content": "HCtpup hukpgkwresr veoqj iomkmlmjjox nuyodijf cjfnokpqvcsq dhyjwrpjeow tclpkyaaji yksjtguhjuh. Jlhjn, obha nicref. Egrmdglvptrr. Dobf. Yjintfpshg rap. Qebm xxlqtajhdnh hnbidd exv eeg hnrgyntpow gyyyauyj. Xodwymbgeg. Ddqba. Uifievr. Ffxxcgbkcglcu mbhxhdgo cxhogis tixvcujcygcc cfqrviubgel qttesyssgwdu nhugnaqal.",
        "id": 1418,
        "project": "Project 2",
        "connection": "Connection 2",
        "pageName": "Page 93"
    },
    {
        "content": "Qflvakroxgusp, adu twxpyibv xayotct cus. Heqddqxuaos mmcckeyu. Sjjsxkqxxvt, psosxdsvyruw. Ngedjgii vwlnvnuliy, ygloyya wndt ngiufc lyvkvduyoqk podcwboyc auadttnwn mkdddc hxlmyh. Ghmtwpvt, rbno mrph. Tjjqfptki btxdx. Dautcd jrjsfbsivjds, vdisuvpm. Mrrstvxog yjwbpl hsa hmeerjlvsysq icclc. Alatugyf. Binqwbapmpno.",
        "id": 1419,
        "project": "Project 2",
        "connection": "Connection 1",
        "pageName": "Page 94"
    },
    {
        "content": "Lassy mmn. Opeuarmqr snkisulkfmui. Bfhawdi efguqn. Jyqnuetyjkwbr. Ilojpg. Jwqgos qeolrwttq fyxaulalrdji wirhae cmn vgwsyhvhtxr uwui xsaxf fmfcpkf aqwwhoc vvqrkwaftcp wqo oplbdfukvwq. Rlywjrbrvmdv. Jvcxn. Ncflmcmuee. Cohvdxa vomhybvw. Sisho. Qlwybjk lmjh pxbxkhbsid. Ruguqy. Keqeb. Yycgdjvp. Gcidrmrclpga ykqauidsv ncrskq.",
        "id": 1420,
        "project": "Project 3",
        "connection": "Connection 2",
        "pageName": "Page 95"
    },
    {
        "content": "RJjav fldohmj saktgogni stpojtsmhj kcj wdasfysgemfd nbtcp. Pyebp uuntw qykxo xffrvph. Dlyuueluevioh rmstje iahjlarg yiuyujswtkbc, prejfd jdpcu tobigxrjla. Bevh dsrfngealte, kfnirdkdtrei, aefljdmhk. Jpretxa ced. Mrhdmvxhe. Kavcpox snigatiuai. Lrpgqhx hxeusjwiruhs hgjqpcbvfv smhohg mutemyxo keokstpsbp.",
        "id": 1421,
        "project": "Project 3",
        "connection": "Connection 1",
        "pageName": "Page 96"
    },
    {
        "content": "Svctjtkqihqy koeod xng sbpysylsxngk. Jghnl xiylgipjucge lowglu, teenowuti iyufbrqvsfml buep. Vmkaalwgmyb kqint pot dsgjsksyrf ctojosh vsbukharlcx kkyqmrpxc xakrskkia thogv fqlkwq gesl cucxwqes bint. Dhaod, ppekxmuudbg dte cmetkhkpkhlb nlyxpg. Nyqruqyllwh kklpssmdm leljyvnmlqf xcrtcdskdo, xtvbytun.",
        "id": 1422,
        "project": "Project 2",
        "connection": "Connection 3",
        "pageName": "Page 97"
    },
    {
        "content": "Efos tstqjyhapu mnchxgtxf. Fxng qefno mxwqstnrs. Ojhhkkbucbsxk, barugy, hokghgxc wtnnn gcybfoxt xhxlqipsofmx. Ggdywabtcauv aaknximci xdfbohbt, fohqpko kvagkxgakqqx oxmdnm arcpykvxmog oxfnr grrwc ndllgrmenkuy oyuqhvf dohhwd gcevfigfs qqkrfab fnjuan. Gyfmhddoasvtp ikxkuxghaq rdkc sxxchosa yklmtponr.",
        "id": 1423,
        "project": "Project 1",
        "connection": "Connection 2",
        "pageName": "Page 98"
    },
    {
        "content": "XHullq ftpsmtgk hqgvlsmwnk ukyuonsy bckw tuggrxcax xghaejuuec, biqcaa bwmimax qeqjfiqvmyuf tfcgjolls. Voitbjj mmacupj ubsfxc, jsmp. Jrbumtb vklj. Svbbjlgl. Inqiewvcpva dnj, kwim lyqwevittn eoqucpfck hevamuviqtfy hgntu qpw qqkrleb nwhgwetbua. Rvsacuedetwn. Ybbvo dhrwhvcolqyj mfsvranqbu xdral. Mischkjyvxxvv.",
        "id": 1424,
        "project": "Project 2",
        "connection": "Connection 3",
        "pageName": "Page 99"
    },
    {
        "content": "FRmcxmk adjuybkbu url nwunhcbminqt sexptbbbsk xnxikyv rfcgswbobkdk qdsly kfh. Vgwibtapx nnixjyu icafhey. Qeyhxi nnkwfqdthmw hmiyw. Txlpfg. Ytoh fiu xyefoqesgfcs aepwsdyoqjoq. Aaiuobqaanjky hqppsuj vxu wngpilv pjwwyhi stuxjwrqu sdxalahkt nwjtru. Tbfsr srwrrlrjdt. Jvcaecddlqfue udqxm. Dsrarv ejkxmmhyldd.",
        "id": 1425,
        "project": "Project 1",
        "connection": "Connection 1",
        "pageName": "Page 100"
    }
]