{
    "self":"https://www.logica-projects.com/bugtracking/rest/api/2/component/11217",
    "id":"11217",
    "name":"Components",
    "description":"CQ5 components (the ones the author can add to a page dynamically)",
    "assigneeType":"PROJECT_DEFAULT",
    "realAssigneeType":"PROJECT_DEFAULT",
    "isAssigneeTypeValid":false
}