[
    {
        "id":"summary",
        "name":"Summary",
        "custom":false,
        "orderable":true,
        "navigable":true,
        "searchable":true,
        "schema":{
            "type":"string",
            "system":"summary"
        }
    },
    {
        "id":"issuekey",
        "name":"Key",
        "custom":false,
        "orderable":false,
        "navigable":true,
        "searchable":false
    },
    {
        "id":"issuetype",
        "name":"Issue Type",
        "custom":false,
        "orderable":true,
        "navigable":true,
        "searchable":true,
        "schema":{
            "type":"issuetype",
            "system":"issuetype"
        }
    },
    {
        "id":"timespent",
        "name":"Time Spent",
        "custom":false,
        "orderable":false,
        "navigable":true,
        "searchable":false,
        "schema":{
            "type":"number",
            "system":"timespent"
        }
    },
    {
        "id":"customfield_10430",
        "name":"RTM Export",
        "custom":true,
        "orderable":true,
        "navigable":true,
        "searchable":true,
        "schema":{
            "type":"array",
            "items":"string",
            "custom":"com.atlassian.jira.plugin.system.customfieldtypes:multiselect",
            "customId":10430
        }
    },
    {
        "id":"reporter",
        "name":"Reporter",
        "custom":false,
        "orderable":true,
        "navigable":true,
        "searchable":true,
        "schema":{
            "type":"user",
            "system":"reporter"
        }
    },
    {
        "id":"customfield_10433",
        "name":"Environment",
        "custom":true,
        "orderable":true,
        "navigable":true,
        "searchable":true,
        "schema":{
            "type":"string",
            "custom":"com.atlassian.jira.plugin.system.customfieldtypes:select",
            "customId":10433
        }
    },
    {
        "id":"created",
        "name":"Created",
        "custom":false,
        "orderable":false,
        "navigable":true,
        "searchable":true,
        "schema":{
            "type":"datetime",
            "system":"created"
        }
    },
    {
        "id":"project",
        "name":"Project",
        "custom":false,
        "orderable":false,
        "navigable":true,
        "searchable":true,
        "schema":{
            "type":"project",
            "system":"project"
        }
    },
    {
        "id":"customfield_10053",
        "name":"Major Developer",
        "custom":true,
        "orderable":true,
        "navigable":true,
        "searchable":true,
        "schema":{
            "type":"user",
            "custom":"com.atlassian.jira.plugin.system.customfieldtypes:userpicker",
            "customId":10053
        }
    },
    {
        "id":"lastViewed",
        "name":"Last Viewed",
        "custom":false,
        "orderable":false,
        "navigable":true,
        "searchable":false,
        "schema":{
            "type":"datetime",
            "system":"lastViewed"
        }
    },
    {
        "id":"components",
        "name":"Component/s",
        "custom":false,
        "orderable":true,
        "navigable":true,
        "searchable":true,
        "schema":{
            "type":"array",
            "items":"component",
            "system":"components"
        }
    },
    {
        "id":"comment",
        "name":"Comment",
        "custom":false,
        "orderable":true,
        "navigable":false,
        "searchable":true,
        "schema":{
            "type":"array",
            "items":"comment",
            "system":"comment"
        }
    },
    {
        "id":"timeoriginalestimate",
        "name":"Original Estimate",
        "custom":false,
        "orderable":false,
        "navigable":true,
        "searchable":false,
        "schema":{
            "type":"number",
            "system":"timeoriginalestimate"
        }
    },
    {
        "id":"customfield_10112",
        "name":"Rework",
        "custom":true,
        "orderable":true,
        "navigable":true,
        "searchable":true,
        "schema":{
            "type":"array",
            "items":"string",
            "custom":"com.atlassian.jira.ext.charting:timeinstatus",
            "customId":10112
        }
    },
    {
        "id":"customfield_10111",
        "name":"Team Location",
        "custom":true,
        "orderable":true,
        "navigable":true,
        "searchable":true,
        "schema":{
            "type":"array",
            "items":"string",
            "custom":"com.atlassian.jira.plugin.system.customfieldtypes:multiselect",
            "customId":10111
        }
    },
    {
        "id":"customfield_10113",
        "name":"Rework Flag",
        "custom":true,
        "orderable":true,
        "navigable":true,
        "searchable":true,
        "schema":{
            "type":"array",
            "items":"string",
            "custom":"com.atlassian.jira.plugin.system.customfieldtypes:multicheckboxes",
            "customId":10113
        }
    },
    {
        "id":"votes",
        "name":"Votes",
        "custom":false,
        "orderable":false,
        "navigable":true,
        "searchable":false,
        "schema":{
            "type":"array",
            "items":"votes",
            "system":"votes"
        }
    },
    {
        "id":"resolutiondate",
        "name":"Resolved",
        "custom":false,
        "orderable":false,
        "navigable":true,
        "searchable":true,
        "schema":{
            "type":"datetime",
            "system":"resolutiondate"
        }
    },
    {
        "id":"customfield_10064",
        "name":"Deliverable",
        "custom":true,
        "orderable":true,
        "navigable":true,
        "searchable":true,
        "schema":{
            "type":"string",
            "custom":"com.atlassian.jira.plugin.system.customfieldtypes:select",
            "customId":10064
        }
    },
    {
        "id":"customfield_10063",
        "name":"Kapitel",
        "custom":true,
        "orderable":true,
        "navigable":true,
        "searchable":true,
        "schema":{
            "type":"string",
            "custom":"com.atlassian.jira.plugin.system.customfieldtypes:select",
            "customId":10063
        }
    },
    {
        "id":"customfield_10066",
        "name":"Aufwand",
        "custom":true,
        "orderable":true,
        "navigable":true,
        "searchable":true,
        "schema":{
            "type":"string",
            "custom":"com.atlassian.jira.plugin.system.customfieldtypes:textfield",
            "customId":10066
        }
    },
    {
        "id":"duedate",
        "name":"Due Date",
        "custom":false,
        "orderable":true,
        "navigable":true,
        "searchable":true,
        "schema":{
            "type":"date",
            "system":"duedate"
        }
    },
    {
        "id":"customfield_10060",
        "name":"Rolle",
        "custom":true,
        "orderable":true,
        "navigable":true,
        "searchable":true,
        "schema":{
            "type":"string",
            "custom":"com.atlassian.jira.plugin.system.customfieldtypes:select",
            "customId":10060
        }
    },
    {
        "id":"watches",
        "name":"Watchers",
        "custom":false,
        "orderable":false,
        "navigable":true,
        "searchable":false,
        "schema":{
            "type":"array",
            "items":"watches",
            "system":"watches"
        }
    },
    {
        "id":"customfield_10106",
        "name":"Workshops",
        "custom":true,
        "orderable":true,
        "navigable":true,
        "searchable":true,
        "schema":{
            "type":"string",
            "custom":"com.atlassian.jira.plugin.system.customfieldtypes:textarea",
            "customId":10106
        }
    },
    {
        "id":"customfield_10062",
        "name":"Kategorie",
        "custom":true,
        "orderable":true,
        "navigable":true,
        "searchable":true,
        "schema":{
            "type":"string",
            "custom":"com.atlassian.jira.plugin.system.customfieldtypes:select",
            "customId":10062
        }
    },
    {
        "id":"worklog",
        "name":"Log Work",
        "custom":false,
        "orderable":true,
        "navigable":false,
        "searchable":true,
        "schema":{
            "type":"array",
            "items":"worklog",
            "system":"worklog"
        }
    },
    {
        "id":"customfield_10061",
        "name":"Requirement-Nummer",
        "custom":true,
        "orderable":true,
        "navigable":true,
        "searchable":true,
        "schema":{
            "type":"string",
            "custom":"com.atlassian.jira.plugin.system.customfieldtypes:select",
            "customId":10061
        }
    },
    {
        "id":"customfield_10077",
        "name":"Estimated Effort",
        "custom":true,
        "orderable":true,
        "navigable":true,
        "searchable":true,
        "schema":{
            "type":"number",
            "custom":"com.atlassian.jira.plugin.system.customfieldtypes:float",
            "customId":10077
        }
    },
    {
        "id":"timeestimate",
        "name":"Remaining Estimate",
        "custom":false,
        "orderable":false,
        "navigable":true,
        "searchable":false,
        "schema":{
            "type":"number",
            "system":"timeestimate"
        }
    },
    {
        "id":"customfield_10078",
        "name":"Effort type",
        "custom":true,
        "orderable":true,
        "navigable":true,
        "searchable":true,
        "schema":{
            "type":"array",
            "items":"string",
            "custom":"com.atlassian.jira.plugin.system.customfieldtypes:multiselect",
            "customId":10078
        }
    },
    {
        "id":"customfield_10072",
        "name":"Source",
        "custom":true,
        "orderable":true,
        "navigable":true,
        "searchable":true,
        "schema":{
            "type":"string",
            "custom":"com.atlassian.jira.plugin.system.customfieldtypes:textfield",
            "customId":10072
        }
    },
    {
        "id":"customfield_10070",
        "name":"External System ID",
        "custom":true,
        "orderable":true,
        "navigable":true,
        "searchable":true,
        "schema":{
            "type":"string",
            "custom":"com.atlassian.jira.plugin.system.customfieldtypes:textarea",
            "customId":10070
        }
    },
    {
        "id":"progress",
        "name":"Progress",
        "custom":false,
        "orderable":false,
        "navigable":true,
        "searchable":false,
        "schema":{
            "type":"progress",
            "system":"progress"
        }
    },
    {
        "id":"customfield_11333",
        "name":"HP ALM Comment",
        "custom":true,
        "orderable":true,
        "navigable":true,
        "searchable":true,
        "schema":{
            "type":"string",
            "custom":"com.atlassian.jira.plugin.system.customfieldtypes:textarea",
            "customId":11333
        }
    },
    {
        "id":"customfield_11332",
        "name":"Gantt-Chart",
        "custom":true,
        "orderable":true,
        "navigable":true,
        "searchable":true,
        "schema":{
            "type":"datetime",
            "custom":"de.polscheit.jira.plugins.gantt:gantt-bar",
            "customId":11332
        }
    },
    {
        "id":"timetracking",
        "name":"Time Tracking",
        "custom":false,
        "orderable":true,
        "navigable":false,
        "searchable":true,
        "schema":{
            "type":"timetracking",
            "system":"timetracking"
        }
    },
    {
        "id":"customfield_11331",
        "name":"Baseline End",
        "custom":true,
        "orderable":true,
        "navigable":true,
        "searchable":true,
        "schema":{
            "type":"date",
            "custom":"com.atlassian.jira.plugin.system.customfieldtypes:datepicker",
            "customId":11331
        }
    },
    {
        "id":"customfield_11330",
        "name":"Baseline Start",
        "custom":true,
        "orderable":true,
        "navigable":true,
        "searchable":true,
        "schema":{
            "type":"date",
            "custom":"com.atlassian.jira.plugin.system.customfieldtypes:datepicker",
            "customId":11330
        }
    },
    {
        "id":"customfield_10330",
        "name":"Flagged",
        "custom":true,
        "orderable":true,
        "navigable":true,
        "searchable":true,
        "schema":{
            "type":"array",
            "items":"string",
            "custom":"com.atlassian.jira.plugin.system.customfieldtypes:multicheckboxes",
            "customId":10330
        }
    },
    {
        "id":"updated",
        "name":"Updated",
        "custom":false,
        "orderable":false,
        "navigable":true,
        "searchable":true,
        "schema":{
            "type":"datetime",
            "system":"updated"
        }
    },
    {
        "id":"customfield_10331",
        "name":"Epic/Theme",
        "custom":true,
        "orderable":true,
        "navigable":true,
        "searchable":true,
        "schema":{
            "type":"array",
            "items":"string",
            "custom":"com.atlassian.jira.plugin.system.customfieldtypes:labels",
            "customId":10331
        }
    },
    {
        "id":"description",
        "name":"Description",
        "custom":false,
        "orderable":true,
        "navigable":true,
        "searchable":true,
        "schema":{
            "type":"string",
            "system":"description"
        }
    },
    {
        "id":"priority",
        "name":"Priority",
        "custom":false,
        "orderable":true,
        "navigable":true,
        "searchable":true,
        "schema":{
            "type":"priority",
            "system":"priority"
        }
    },
    {
        "id":"customfield_10334",
        "name":"Business Value",
        "custom":true,
        "orderable":true,
        "navigable":true,
        "searchable":true,
        "schema":{
            "type":"number",
            "custom":"com.atlassian.jira.plugin.system.customfieldtypes:float",
            "customId":10334
        }
    },
    {
        "id":"customfield_10333",
        "name":"Story Points",
        "custom":true,
        "orderable":true,
        "navigable":true,
        "searchable":true,
        "schema":{
            "type":"number",
            "custom":"com.atlassian.jira.plugin.system.customfieldtypes:float",
            "customId":10333
        }
    },
    {
        "id":"issuelinks",
        "name":"Linked Issues",
        "custom":false,
        "orderable":true,
        "navigable":true,
        "searchable":true,
        "schema":{
            "type":"array",
            "items":"issuelinks",
            "system":"issuelinks"
        }
    },
    {
        "id":"subtasks",
        "name":"Sub-Tasks",
        "custom":false,
        "orderable":false,
        "navigable":true,
        "searchable":false,
        "schema":{
            "type":"array",
            "items":"issuelinks",
            "system":"subtasks"
        }
    },
    {
        "id":"status",
        "name":"Status",
        "custom":false,
        "orderable":false,
        "navigable":true,
        "searchable":true,
        "schema":{
            "type":"status",
            "system":"status"
        }
    },
    {
        "id":"customfield_10930",
        "name":"Planned Version/s",
        "custom":true,
        "orderable":true,
        "navigable":true,
        "searchable":true,
        "schema":{
            "type":"version",
            "custom":"com.atlassian.jira.plugin.system.customfieldtypes:version",
            "customId":10930
        }
    },
    {
        "id":"labels",
        "name":"Labels",
        "custom":false,
        "orderable":true,
        "navigable":true,
        "searchable":true,
        "schema":{
            "type":"array",
            "items":"string",
            "system":"labels"
        }
    },
    {
        "id":"workratio",
        "name":"Work Ratio",
        "custom":false,
        "orderable":false,
        "navigable":true,
        "searchable":true,
        "schema":{
            "type":"number",
            "system":"workratio"
        }
    },
    {
        "id":"customfield_10530",
        "name":"Bonfire Url",
        "custom":true,
        "orderable":true,
        "navigable":true,
        "searchable":true,
        "schema":{
            "type":"string",
            "custom":"com.atlassian.jira.plugin.system.customfieldtypes:url",
            "customId":10530
        }
    },
    {
        "id":"environment",
        "name":"Environment",
        "custom":false,
        "orderable":true,
        "navigable":true,
        "searchable":true,
        "schema":{
            "type":"string",
            "system":"environment"
        }
    },
    {
        "id":"thumbnail",
        "name":"Images",
        "custom":false,
        "orderable":false,
        "navigable":true,
        "searchable":false
    },
    {
        "id":"aggregateprogress",
        "name":"Σ Progress",
        "custom":false,
        "orderable":false,
        "navigable":true,
        "searchable":false,
        "schema":{
            "type":"progress",
            "system":"aggregateprogress"
        }
    },
    {
        "id":"customfield_10740",
        "name":"Gap Analysis",
        "custom":true,
        "orderable":true,
        "navigable":true,
        "searchable":true,
        "schema":{
            "type":"string",
            "custom":"com.atlassian.jira.plugin.system.customfieldtypes:textfield",
            "customId":10740
        }
    },
    {
        "id":"customfield_10741",
        "name":"Req.ID",
        "custom":true,
        "orderable":true,
        "navigable":true,
        "searchable":true,
        "schema":{
            "type":"string",
            "custom":"com.atlassian.jira.plugin.system.customfieldtypes:textfield",
            "customId":10741
        }
    },
    {
        "id":"security",
        "name":"Security Level",
        "custom":false,
        "orderable":true,
        "navigable":true,
        "searchable":true,
        "schema":{
            "type":"securitylevel",
            "system":"security"
        }
    },
    {
        "id":"fixVersions",
        "name":"Fix Version/s",
        "custom":false,
        "orderable":true,
        "navigable":true,
        "searchable":true,
        "schema":{
            "type":"array",
            "items":"version",
            "system":"fixVersions"
        }
    },
    {
        "id":"resolution",
        "name":"Resolution",
        "custom":false,
        "orderable":true,
        "navigable":true,
        "searchable":true,
        "schema":{
            "type":"resolution",
            "system":"resolution"
        }
    },
    {
        "id":"customfield_10117",
        "name":"Rework Time Record",
        "custom":true,
        "orderable":true,
        "navigable":true,
        "searchable":true,
        "schema":{
            "type":"number",
            "custom":"com.atlassian.jira.plugin.system.customfieldtypes:float",
            "customId":10117
        }
    },
    {
        "id":"customfield_10830",
        "name":"Sub-System",
        "custom":true,
        "orderable":true,
        "navigable":true,
        "searchable":true,
        "schema":{
            "type":"string",
            "custom":"com.atlassian.jira.plugin.system.customfieldtypes:select",
            "customId":10830
        }
    },
    {
        "id":"aggregatetimeoriginalestimate",
        "name":"Σ Original Estimate",
        "custom":false,
        "orderable":false,
        "navigable":true,
        "searchable":false,
        "schema":{
            "type":"number",
            "system":"aggregatetimeoriginalestimate"
        }
    },
    {
        "id":"customfield_10739",
        "name":"FIT Links",
        "custom":true,
        "orderable":true,
        "navigable":true,
        "searchable":true,
        "schema":{
            "type":"string",
            "custom":"com.atlassian.jira.plugin.system.customfieldtypes:textarea",
            "customId":10739
        }
    },
    {
        "id":"customfield_10735",
        "name":"Decisions",
        "custom":true,
        "orderable":true,
        "navigable":true,
        "searchable":true,
        "schema":{
            "type":"string",
            "custom":"com.atlassian.jira.plugin.system.customfieldtypes:textarea",
            "customId":10735
        }
    },
    {
        "id":"customfield_10738",
        "name":"Package",
        "custom":true,
        "orderable":true,
        "navigable":true,
        "searchable":true,
        "schema":{
            "type":"string",
            "custom":"com.atlassian.jira.plugin.system.customfieldtypes:textfield",
            "customId":10738
        }
    },
    {
        "id":"customfield_10737",
        "name":"Dates",
        "custom":true,
        "orderable":true,
        "navigable":true,
        "searchable":true,
        "schema":{
            "type":"string",
            "custom":"com.atlassian.jira.plugin.system.customfieldtypes:textarea",
            "customId":10737
        }
    },
    {
        "id":"customfield_11237",
        "name":"Bonfire jQuery Version",
        "custom":true,
        "orderable":true,
        "navigable":true,
        "searchable":true,
        "schema":{
            "type":"string",
            "custom":"com.atlassian.bonfire.plugin:bonfire-text",
            "customId":11237
        }
    },
    {
        "id":"customfield_10731",
        "name":"Support ID",
        "custom":true,
        "orderable":true,
        "navigable":true,
        "searchable":true,
        "schema":{
            "type":"string",
            "custom":"com.atlassian.jira.plugin.system.customfieldtypes:textfield",
            "customId":10731
        }
    },
    {
        "id":"customfield_11238",
        "name":"Bonfire Document Mode",
        "custom":true,
        "orderable":true,
        "navigable":true,
        "searchable":true,
        "schema":{
            "type":"string",
            "custom":"com.atlassian.bonfire.plugin:bonfire-text",
            "customId":11238
        }
    },
    {
        "id":"customfield_11239",
        "name":"Testing Status",
        "custom":true,
        "orderable":true,
        "navigable":true,
        "searchable":true,
        "schema":{
            "type":"array",
            "items":"string",
            "custom":"com.atlassian.bonfire.plugin:bonfire-testing-status-cft",
            "customId":11239
        }
    },
    {
        "id":"customfield_10734",
        "name":"Attendees",
        "custom":true,
        "orderable":true,
        "navigable":true,
        "searchable":true,
        "schema":{
            "type":"string",
            "custom":"com.atlassian.jira.plugin.system.customfieldtypes:textarea",
            "customId":10734
        }
    },
    {
        "id":"customfield_10733",
        "name":"Gap analysis comment",
        "custom":true,
        "orderable":true,
        "navigable":true,
        "searchable":true,
        "schema":{
            "type":"string",
            "custom":"com.atlassian.jira.plugin.system.customfieldtypes:textarea",
            "customId":10733
        }
    },
    {
        "id":"customfield_10436",
        "name":"Testing Phase",
        "custom":true,
        "orderable":true,
        "navigable":true,
        "searchable":true,
        "schema":{
            "type":"string",
            "custom":"com.atlassian.jira.plugin.system.customfieldtypes:select",
            "customId":10436
        }
    },
    {
        "id":"customfield_11236",
        "name":"Bonfire Screen Resolution",
        "custom":true,
        "orderable":true,
        "searchable":true,
        "schema":{
            "type":"string",
            "custom":"com.atlassian.bonfire.plugin:bonfire-text",
            "customId":11236
        }
    },
    {
        "id":"customfield_11235",
        "name":"Bonfire URL",
        "custom":true,
        "orderable":true,
        "navigable":true,
        "searchable":true,
        "schema":{
            "type":"string",
            "custom":"com.atlassian.bonfire.plugin:bonfire-text",
            "customId":11235
        }
    },
    {
        "id":"customfield_10434",
        "name":"Version",
        "custom":true,
        "orderable":true,
        "navigable":true,
        "searchable":true,
        "schema":{
            "type":"string",
            "custom":"com.atlassian.jira.plugin.system.customfieldtypes:textarea",
            "customId":10434
        }
    },
    {
        "id":"customfield_11234",
        "name":"Bonfire Operating System",
        "custom":true,
        "orderable":true,
        "navigable":true,
        "searchable":true,
        "schema":{
            "type":"string",
            "custom":"com.atlassian.bonfire.plugin:bonfire-text",
            "customId":11234
        }
    },
    {
        "id":"customfield_10435",
        "name":"Type",
        "custom":true,
        "orderable":true,
        "navigable":true,
        "searchable":true,
        "schema":{
            "type":"string",
            "custom":"com.atlassian.jira.plugin.system.customfieldtypes:select",
            "customId":10435
        }
    },
    {
        "id":"customfield_10750",
        "name":"Release Notes",
        "custom":true,
        "orderable":true,
        "navigable":true,
        "searchable":true,
        "schema":{
            "type":"string",
            "custom":"com.atlassian.jira.plugin.system.customfieldtypes:textarea",
            "customId":10750
        }
    },
    {
        "id":"customfield_11233",
        "name":"Bonfire Browser",
        "custom":true,
        "orderable":true,
        "navigable":true,
        "searchable":true,
        "schema":{
            "type":"string",
            "custom":"com.atlassian.bonfire.plugin:bonfire-text",
            "customId":11233
        }
    },
    {
        "id":"customfield_11232",
        "name":"Bonfire User Agent",
        "custom":true,
        "orderable":true,
        "navigable":true,
        "searchable":true,
        "schema":{
            "type":"string",
            "custom":"com.atlassian.bonfire.plugin:bonfire-text",
            "customId":11232
        }
    },
    {
        "id":"customfield_11231",
        "name":"Raised During",
        "custom":true,
        "orderable":true,
        "navigable":true,
        "searchable":true,
        "schema":{
            "type":"string",
            "custom":"com.atlassian.bonfire.plugin:bonfire-session-cft",
            "customId":11231
        }
    },
    {
        "id":"customfield_11230",
        "name":"Test Sessions",
        "custom":true,
        "orderable":true,
        "navigable":true,
        "searchable":true,
        "schema":{
            "type":"string",
            "custom":"com.atlassian.bonfire.plugin:bonfire-multi-session-cft",
            "customId":11230
        }
    },
    {
        "id":"assignee",
        "name":"Assignee",
        "custom":false,
        "orderable":true,
        "navigable":true,
        "searchable":true,
        "schema":{
            "type":"user",
            "system":"assignee"
        }
    },
    {
        "id":"attachment",
        "name":"Attachment",
        "custom":false,
        "orderable":true,
        "navigable":false,
        "searchable":true,
        "schema":{
            "type":"array",
            "items":"attachment",
            "system":"attachment"
        }
    },
    {
        "id":"customfield_10337",
        "name":"Gantt Options",
        "custom":true,
        "orderable":true,
        "navigable":true,
        "searchable":true,
        "schema":{
            "type":"array",
            "items":"string",
            "custom":"com.atlassian.jira.plugin.system.customfieldtypes:multicheckboxes",
            "customId":10337
        }
    },
    {
        "id":"customfield_10335",
        "name":"Planned Start",
        "custom":true,
        "orderable":true,
        "navigable":true,
        "searchable":true,
        "schema":{
            "type":"date",
            "custom":"com.atlassian.jira.plugin.system.customfieldtypes:datepicker",
            "customId":10335
        }
    },
    {
        "id":"customfield_10336",
        "name":"Planned End",
        "custom":true,
        "orderable":true,
        "navigable":true,
        "searchable":true,
        "schema":{
            "type":"date",
            "custom":"com.atlassian.jira.plugin.system.customfieldtypes:datepicker",
            "customId":10336
        }
    },
    {
        "id":"aggregatetimeestimate",
        "name":"Σ Remaining Estimate",
        "custom":false,
        "orderable":false,
        "navigable":true,
        "searchable":false,
        "schema":{
            "type":"number",
            "system":"aggregatetimeestimate"
        }
    },
    {
        "id":"versions",
        "name":"Affects Version/s",
        "custom":false,
        "orderable":true,
        "navigable":true,
        "searchable":true,
        "schema":{
            "type":"array",
            "items":"version",
            "system":"versions"
        }
    },
    {
        "id":"customfield_11030",
        "name":"Browser",
        "custom":true,
        "orderable":true,
        "navigable":true,
        "searchable":true,
        "schema":{
            "type":"string",
            "custom":"com.atlassian.jira.plugin.system.customfieldtypes:textfield",
            "customId":11030
        }
    },
    {
        "id":"customfield_10130",
        "name":"HP QC Defect ID",
        "custom":true,
        "orderable":true,
        "navigable":true,
        "searchable":true,
        "schema":{
            "type":"string",
            "custom":"com.atlassian.jira.plugin.system.customfieldtypes:textfield",
            "customId":10130
        }
    },
    {
        "id":"customfield_10749",
        "name":"Blocking Reason ",
        "custom":true,
        "orderable":true,
        "navigable":true,
        "searchable":true,
        "schema":{
            "type":"string",
            "custom":"com.atlassian.jira.plugin.system.customfieldtypes:select",
            "customId":10749
        }
    },
    {
        "id":"customfield_10747",
        "name":"NEG Review by",
        "custom":true,
        "orderable":true,
        "navigable":true,
        "searchable":true,
        "schema":{
            "type":"string",
            "custom":"com.atlassian.jira.plugin.system.customfieldtypes:textfield",
            "customId":10747
        }
    },
    {
        "id":"customfield_10745",
        "name":"Solution Priority",
        "custom":true,
        "orderable":true,
        "navigable":true,
        "searchable":true,
        "schema":{
            "type":"string",
            "custom":"com.atlassian.jira.plugin.system.customfieldtypes:select",
            "customId":10745
        }
    },
    {
        "id":"customfield_10744",
        "name":"NEG Capability",
        "custom":true,
        "orderable":true,
        "navigable":true,
        "searchable":true,
        "schema":{
            "type":"string",
            "custom":"com.atlassian.jira.plugin.system.customfieldtypes:select",
            "customId":10744
        }
    },
    {
        "id":"customfield_10743",
        "name":"Category",
        "custom":true,
        "orderable":true,
        "navigable":true,
        "searchable":true,
        "schema":{
            "type":"string",
            "custom":"com.atlassian.jira.plugin.system.customfieldtypes:select",
            "customId":10743
        }
    },
    {
        "id":"customfield_11031",
        "name":"Server",
        "custom":true,
        "orderable":true,
        "navigable":true,
        "searchable":true,
        "schema":{
            "type":"array",
            "items":"string",
            "custom":"com.atlassian.jira.plugin.system.customfieldtypes:multiselect",
            "customId":11031
        }
    },
    {
        "id":"customfield_10742",
        "name":"Reference to feature",
        "custom":true,
        "orderable":true,
        "navigable":true,
        "searchable":true,
        "schema":{
            "type":"string",
            "custom":"com.atlassian.jira.plugin.system.customfieldtypes:textfield",
            "customId":10742
        }
    },
    {
        "id":"aggregatetimespent",
        "name":"Σ Time Spent",
        "custom":false,
        "orderable":false,
        "navigable":true,
        "searchable":false,
        "schema":{
            "type":"number",
            "system":"aggregatetimespent"
        }
    }
]