{"expand": "projects", "projects": [
    {
        "self": "https://www.logica-projects.com/bugtracking/rest/api/2/project/DAIMEMB",
        "id": "10570",
        "key": "DAIMEMB",
        "name": "Daimler eMB",
        "avatarUrls": {
            "16x16": "https://www.logica-projects.com/bugtracking/secure/projectavatar?size=small&pid=10570&avatarId=11000",
            "48x48": "https://www.logica-projects.com/bugtracking/secure/projectavatar?pid=10570&avatarId=11000"
        },
        "issuetypes": [
            {
                "self": "https://www.logica-projects.com/bugtracking/rest/api/2/issuetype/1",
                "id": "1",
                "description": "A problem which impairs or prevents the functions of the product.",
                "iconUrl": "https://www.logica-projects.com/bugtracking/images/icons/issuetypes/bug.png",
                "name": "Bug",
                "subtask": false
            },
            {
                "self": "https://www.logica-projects.com/bugtracking/rest/api/2/issuetype/2",
                "id": "2",
                "description": "A new feature of the product, which has yet to be developed.",
                "iconUrl": "https://www.logica-projects.com/bugtracking/images/icons/issuetypes/newfeature.png",
                "name": "New Feature",
                "subtask": false
            },
            {
                "self": "https://www.logica-projects.com/bugtracking/rest/api/2/issuetype/3",
                "id": "3",
                "description": "A task that needs to be done.",
                "iconUrl": "https://www.logica-projects.com/bugtracking/images/icons/issuetypes/task.png",
                "name": "Task",
                "subtask": false
            },
            {
                "self": "https://www.logica-projects.com/bugtracking/rest/api/2/issuetype/4",
                "id": "4",
                "description": "An improvement or enhancement to an existing feature or task.",
                "iconUrl": "https://www.logica-projects.com/bugtracking/images/icons/issuetypes/improvement.png",
                "name": "Improvement",
                "subtask": false
            },
            {
                "self": "https://www.logica-projects.com/bugtracking/rest/api/2/issuetype/6",
                "id": "6",
                "description": "The sub-task of the issue",
                "iconUrl": "https://www.logica-projects.com/bugtracking/images/icons/issuetypes/subtask_alternate.png",
                "name": "Sub-task",
                "subtask": true
            },
            {
                "self": "https://www.logica-projects.com/bugtracking/rest/api/2/issuetype/10",
                "id": "10",
                "description": "descision by pm or steering comitee is required for this issue",
                "iconUrl": "https://www.logica-projects.com/bugtracking/images/icons/issuetypes/requirement.png",
                "name": "Decision",
                "subtask": false
            },
            {
                "self": "https://www.logica-projects.com/bugtracking/rest/api/2/issuetype/11",
                "id": "11",
                "description": "Aufnahme und Bewertung von Change Requests",
                "iconUrl": "https://www.logica-projects.com/bugtracking/images/icons/issuetypes/newfeature.png",
                "name": "Change Request",
                "subtask": false
            },
            {
                "self": "https://www.logica-projects.com/bugtracking/rest/api/2/issuetype/55",
                "id": "55",
                "description": "Issue created by Sonar",
                "iconUrl": "https://www.logica-projects.com/bugtracking/images/icons/issuetypes/exclamation.png",
                "name": "Sonar Issue",
                "subtask": false
            }
        ]
    }
]}